﻿455499 = {
	name = "Charles"
	dynasty = 101
	martial = 8
	diplomacy = 5
	intrigue = 8
	stewardship = 8
	religion = "catholic"
	culture = french
	father = 455502
	mother = 462600
	1337.1.2 = {
		birth = "1337.1.2"
	}
	1387.1.2 = {
		death = "1387.1.2"
	}
}

455500 = {
	name = "Philippe"
	dynasty = 101
	martial = 3
	diplomacy = 6
	intrigue = 4
	stewardship = 7
	religion = "catholic"
	culture = french
	trait = wrathful
	trait = deceitful
	trait = arrogant
	trait = zealous
	trait = education_martial_1
	father = 455512
	mother = 455805
	1293.1.2 = {
		birth = "1293.1.2"
	}
	1329.1.2 = {
		add_spouse = 455532
	}
	1350.8.22 = {
		death = "1350.8.22"
	}
}

455501 = {
	name = "Jeanne"
	female = yes
	dynasty = 101
	martial = 6
	diplomacy = 4
	intrigue = 7
	stewardship = 7
	religion = "catholic"
	culture = french
	trait = wrathful
	trait = honest
	trait = education_learning_2
	father = 455512
	mother = 455805
	1294.1.2 = {
		birth = "1294.1.2"
	}
	1342.3.7 = {
		death = "1342.3.7"
	}
}

455502 = {
	name = "Jean"
	# AKA: Jean II
	dynasty = 101
	martial = 5
	diplomacy = 2
	intrigue = 4
	stewardship = 5
	religion = "catholic"
	culture = french
	trait = arbitrary
	trait = deceitful
	trait = education_intrigue_1
	father = 455500
	mother = 455532
	1319.4.16 = {
		birth = "1319.4.16"
	}
	1332.7.28 = {
		add_spouse = 462600
	}
	1364.4.8 = {
		death = "1364.4.8"
	}
}

455503 = {
	name = "Marie"
	# AKA: Marie de France
	female = yes
	dynasty = 101
	martial = 7
	diplomacy = 6
	intrigue = 4
	stewardship = 6
	religion = "catholic"
	culture = french
	trait = greedy
	trait = education_learning_2
	father = 455500
	mother = 455532
	1326.1.2 = {
		birth = "1326.1.2"
	}
	1333.1.2 = {
		death = "1333.1.2"
	}
}

455504 = {
	name = "Philippe"
	# AKA: Philippe d'Orléans
	dynasty = 101
	martial = 4
	diplomacy = 7
	intrigue = 7
	stewardship = 6
	religion = "catholic"
	culture = french
	father = 455500
	mother = 455532
	1336.7.1 = {
		birth = "1336.7.1"
	}
	1376.9.1 = {
		death = "1376.9.1"
	}
}

455506 = {
	name = "Isabelle"
	female = yes
	dynasty = 101
	martial = 7
	diplomacy = 7
	intrigue = 5
	stewardship = 7
	religion = "catholic"
	culture = french
	trait = cynical
	trait = education_intrigue_1
	father = 455512
	mother = 161362
	1313.1.2 = {
		birth = "1313.1.2"
	}
	1383.7.26 = {
		death = "1383.7.26"
	}
}

455510 = {
	name = "Isabelle"
	female = yes
	dynasty = 101
	martial = 7
	diplomacy = 7
	intrigue = 7
	stewardship = 6
	religion = "catholic"
	culture = french
	trait = education_intrigue_1
	father = 455512
	mother = 455805
	1292.1.2 = {
		birth = "1292.1.2"
	}
	1309.1.13 = {
		death = "1309.1.13"
	}
}

455511 = {
	name = "Marguerite"
	female = yes
	dynasty = 101
	martial = 7
	diplomacy = 8
	intrigue = 5
	stewardship = 7
	religion = "catholic"
	culture = french
	trait = education_learning_2
	father = 455512
	mother = 455805
	1295.1.2 = {
		birth = "1295.1.2"
	}
	1342.1.2 = {
		death = "1342.1.2"
	}
}

455512 = {
	name = "Charles"
	dynasty = 101
	martial = 6
	diplomacy = 8
	intrigue = 7
	stewardship = 7
	religion = "catholic"
	culture = french
	trait = calm
	trait = arrogant
	trait = education_martial_3
	father = 455528
	mother = 455529
	1270.3.12 = {
		birth = "1270.3.12"
	}
	1290.8.16 = {
		add_spouse = 455805 # Marguerite of Sicily
	}
	1301.2.28 = {
		add_spouse = 32791 # Catherine de Courtenay
	}
	1308.6.1 = {
		add_spouse = 161362 # Mahaut of Châtillon
	}
	1325.12.16 = {
		death = "1325.12.16"
	}
}

455513 = {
	name = "Charles"
	dynasty = 101
	martial = 4
	diplomacy = 7
	intrigue = 4
	stewardship = 6
	religion = "catholic"
	culture = french
	trait = chaste
	trait = education_learning_3
	father = 455512
	mother = 455805
	1297.1.2 = {
		birth = "1297.1.2"
	}
	1336.12.1 = {
		add_spouse = 457560 # Maria de la Cerda
	}
	1346.8.26 = {
		death = "1346.8.26"
	}
}

455514 = {
	name = "Charles"
	dynasty = 101
	martial = 7
	diplomacy = 7
	intrigue = 6
	stewardship = 4
	religion = "catholic"
	culture = french
	father = 455513
	mother = 457560 # Maria de la Cerda
	1337.2.2 = {
		birth = "1337.2.2"
	}
	1375.7.5 = {
		death = "1375.7.5"
	}
}

455537 = {
	name = "Blanche"
	female = yes
	dynasty = 101
	martial = 5
	diplomacy = 4
	intrigue = 5
	stewardship = 4
	religion = "catholic"
	culture = french
	trait = arrogant
	trait = education_intrigue_1
	father = 455512
	mother = 161362 # Mahaut of Châtillon
	1317.1.1 = {
		birth = "1317.1.1"
	}
	1348.8.1 = {
		death = "1348.8.1"
	}
}

461702 = {
	name = "Marie"
	female = yes
	dynasty = 101
	martial = 5
	diplomacy = 4
	intrigue = 5
	stewardship = 4
	religion = "catholic"
	culture = french
	trait = arrogant
	trait = education_intrigue_2
	father = 455512
	mother = 161362 # Mahaut of Châtillon
	1309.1.2 = {
		birth = "1309.1.2"
	}
	1331.10.28 = {
		death = "1331.10.28"
	}
}

461717 = {
	name = "Catherine"
	female = yes
	dynasty = 101
	martial = 5
	diplomacy = 9
	intrigue = 8
	stewardship = 9
	religion = "catholic"
	culture = french
	trait = calm
	trait = education_learning_3
	father = 455512
	mother = 32791 # Catherine de Courtenay
	1303.1.1 = {
		birth = "1303.1.1"
	}
	1346.10.1 = {
		death = "1346.10.1"
	}
}

161900 = {
	name = "Jeanne" # Jeanne de Valois
	female = yes
	dynasty = 101
	religion = "catholic"
	culture = french
	father = 455512
	mother = 32791 # Catherine de Courtenay
	1304.1.2 = {
		birth = "1304.1.2"
	}
	1363.7.13 = {
		death = "1363.7.13"
	}
}

204986 = {
	name = "Alix" #Alix de Dreux
	female = yes
	dynasty = 86 #Capetian house of Dreux
	religion = "catholic"
	culture = french
	father = CKU_montfort_61
	mother = 91135 #Agnès de Baudemont
	1145.1.1 = {
		birth = "1145.1.1"
	}
	#Raoul I de Coucy (1174.1.1)
	1217.1.1 = {
		death = "1217.1.1"
	}
}

204987 = {
	name = "Robert" #Robert II de Dreux
	dynasty = 86 #Capetian house of Dreux
	religion = "catholic"
	culture = french
	father = CKU_montfort_61
	mother = 91135 #Agnès de Baudemont
	1154.1.1 = {
		birth = "1154.1.1"
	}
	1177.1.1 = {
		add_spouse = 205714 #Mahaut de Bourgogne
	}
	1181.1.1 = {
		remove_spouse = 205714 #Mahaut de Bourgogne
	}
	1184.1.1 = {
		add_spouse = 204982 #Yolande de Courcy
	}
	1190.7.4 = {
		trait = faith_warrior
	}
	1191.8.3 = {
		remove_trait = faith_warrior
	}
	1218.12.28 = {
		death = "1218.12.28"
	}
}

204988 = {
	name = "Henri" #Henri de Dreux, bishop of Orléans
	dynasty = 86 #Capetian house of Dreux
	religion = "catholic"
	culture = french
	trait = education_learning_2
	father = CKU_montfort_61
	mother = 91135 #Agnès de Baudemont
	1155.1.1 = {
		birth = "1155.1.1"
	}
	1199.1.1 = {
		death = "1199.1.1"
	}
}

204989 = {
	name = "Robert" #Robert III Gasteblé
	dynasty = 86 #Capetian house of Dreux
	religion = "catholic"
	culture = french
	father = 204987 #Robert II de Dreux
	mother = 204982 #Yolande de Coucy
	1185.1.1 = {
		birth = "1185.1.1"
	}
	1210.1.1 = {
		add_spouse = 91138 #Aénor de Saint-Valery
	}
	1234.1.1 = {
		death = "1234.1.1"
	}
}

205517 = {
	name = "Mamilie" #Mamilie de Dreux
	# AKA: Mabille
	female = yes
	dynasty = 86 #Capetian house of Dreux
	religion = "catholic"
	culture = french
	trait = education_learning_3 #nun
	father = CKU_montfort_61
	mother = 91135 #Agnès de Baudemont
	1166.1.1 = {
		birth = "1166.1.1"
	}
	1200.1.1 = {
		death = "1200.1.1"
	}
}

455517 = {
	name = "Blanche" #Blanche de Bretagne
	female = yes
	dynasty = 86 #Capetian house of Dreux
	martial = 4
	diplomacy = 7
	intrigue = 4
	stewardship = 7
	learning = 5
	religion = "catholic"
	culture = french
	trait = calm
	trait = generous
	trait = arrogant
	trait = education_learning_2
	father = 455789 #Jean II de Bretagne
	mother = 455791 #Béatrice d'Angleterre
	1270.1.1 = {
		birth = "1270.1.1"
	}
	1327.3.19 = {
		death = "1327.3.19"
	}
}

455753 = {
	name = "Jeanne"
	female = yes
	dynasty = 86
	martial = 5
	diplomacy = 5
	intrigue = 6
	stewardship = 8
	religion = "catholic"
	culture = french
	trait = deceitful
	trait = education_learning_3
	father = 455754
	mother = 455770
	1319.1.2 = {
		birth = "1319.1.2"
	}
	1369.1.2 = {
		death = "1369.1.2"
	}
}

455788 = {
	name = "Marie"
	female = yes
	dynasty = 86
	martial = 6
	diplomacy = 5
	intrigue = 6
	stewardship = 5
	religion = "catholic"
	culture = french
	trait = just
	trait = zealous
	trait = calm
	trait = education_intrigue_2
	father = 455789
	mother = 455791
	1268.1.1 = {
		birth = "1268.1.1"
	}
	1339.1.1 = {
		death = "1339.1.1"
	}
}

455789 = {
	name = "Jean"
	dynasty = 86
	martial = 7
	diplomacy = 5
	intrigue = 5
	stewardship = 4
	religion = "catholic"
	culture = french
	trait = education_martial_3
	father = 7621
	1239.1.1 = {
		birth = "1239.1.1"
	}
	1260.1.22 = {
		add_spouse = 455791
	}
	1305.11.18 = {
		death = "1305.11.18"
	}
}

7431 = {
	name = "Jean"
	dynasty = 86
	religion = "catholic"
	culture = french
	father = 455789
	mother = 455791
	1266.1.1 = {
		birth = "1266.1.1"
	}
	1334.1.17 = {
		death = "1334.1.17"
	}
}

7620 = {
	name = "Pierre" #Pierre I Mauclerc
	# AKA: Peter
	dynasty = 86 #Capetian house of Dreux
	religion = "catholic"
	culture = french
	trait = education_learning_1 #Mauclerc
	father = 204987 #Robert II de Dreux
	mother = 204982 #Yolande de Coucy
	1187.1.1 = {
		birth = "1187.1.1"
	}
	1213.1.1 = {
		add_spouse = 91139 #Alix de Thouars
	}
	1226.1.30 = {
		trait = faith_warrior
	}
	1226.11.8 = {
		remove_trait = faith_warrior
	}
	1249.6.5 = {
		trait = faith_warrior
	}
	1250.7.6 = {
		death = "1250.7.6"
	}
}

7621 = {
	name = "Jean" #Jean I de Bretagne
	dynasty = 86 #Capetian house of Dreux
	religion = "catholic"
	culture = french
	father = 7620 #Pierre I Mauclerc
	mother = 91139 #Alix de Thouars
	1217.1.1 = {
		birth = "1217.1.1"
	}
	1236.1.16 = {
		add_spouse = 71564 #Infanta doña Blanca de Navarra
	}
	1286.10.8 = {
		death = "1286.10.8"
	}
}

7626 = {
	name = "Yolande"
	# AKA: Yolanda
	female = yes
	dynasty = 86
	martial = 7
	diplomacy = 7
	intrigue = 7
	stewardship = 6
	religion = "catholic"
	culture = french
	trait = arrogant
	trait = wrathful
	trait = education_martial_3
	father = 204989
	1212.1.5 = {
		birth = "1212.1.5"
	}
	1248.2.1 = {
		death = "1248.2.1"
	}
}

91035 = {
	name = "Simon" #Simon de Dreux
	# AKA: Simon de Dreux
	dynasty = 86 #Capetian house of Dreux
	religion = "catholic"
	culture = french
	father = CKU_montfort_61
	mother = 91133 #Agnès de Garlande
	1141.1.1 = {
		birth = "1141.1.1"
	}
	1182.1.1 = {
		death = "1182.1.1"
	}
}

91036 = {
	name = "AdE_le" #Adèle de Dreux
	# AKA: Adele de Dreux
	female = yes
	dynasty = 86 #Capetian house of Dreux
	religion = "catholic"
	culture = french
	father = CKU_montfort_61
	mother = 91134 #Harvise d'Évreux
	1145.1.1 = {
		birth = "1145.1.1"
	}
	1215.1.1 = {
		death = "1215.1.1"
	}
}

91039 = {
	name = "E_lE_onore" #Éléonore de Dreux
	# AKA: Eleonore de Dreux
	female = yes
	dynasty = 86 #Capetian house of Dreux
	religion = "catholic"
	culture = french
	father = 204987 #Robert II de Dreux
	mother = 204982 #Yolande de Coucy
	1186.1.1 = {
		birth = "1186.1.1"
	}
	#Hugues III de Châteauneuf
	#Robert de Saint-Clair
	1250.1.1 = {
		death = "1250.1.1"
	}
}

91041 = {
	name = "Isabelle" #Isabelle de Dreux
	# AKA: Isabelle de Dreux
	female = yes
	dynasty = 86 #Capetian house of Dreux
	religion = "catholic"
	culture = french
	father = 204987 #Robert II de Dreux
	mother = 204982 #Yolande de Coucy
	1188.1.1 = {
		birth = "1188.1.1"
	}
	#Jean II de Pierrepont
	1245.1.1 = {
		death = "1245.1.1"
	}
}

91042 = {
	name = "Alix" #Alix de Dreux
	# AKA: Alix de Dreux
	female = yes
	dynasty = 86 #Capetian house of Dreux
	religion = "catholic"
	culture = french
	father = 204987 #Robert II de Dreux
	mother = 204982 #Yolande de Coucy
	1189.1.1 = {
		birth = "1189.1.1"
	}
	#Gauthier IV de Bourgogne (1200.1.1)
	#Renaud III de Choiseul (1221.1.1)
	1258.1.1 = {
		death = "1258.1.1"
	}
}

91043 = {
	name = "Philippa" #Philippa de Dreux
	# AKA: Philippa de Dreux
	female = yes
	dynasty = 86 #Capetian house of Dreux
	religion = "catholic"
	culture = french
	father = 204987 #Robert II de Dreux
	mother = 204982 #Yolande de Coucy
	1192.1.1 = {
		birth = "1192.1.1"
	}
	#Henri II de Bar (1219.1.1)
	1242.1.1 = {
		death = "1242.1.1"
	}
}

91044 = {
	name = "Henri" #Henri de Dreux
	# AKA: Henri de Dreux, archbishop of Reims
	dynasty = 86 #Capetian house of Dreux
	religion = "catholic"
	culture = french
	trait = education_learning_3
	father = 204987 #Robert II de Dreux
	mother = 204982 #Yolande de Coucy
	1193.1.1 = {
		birth = "1193.1.1"
	}
	1240.1.1 = {
		death = "1240.1.1"
	}
}

91045 = {
	name = "AgnE_s" #Agnès de Dreux
	# AKA: Agnes de Dreux
	female = yes
	dynasty = 86 #Capetian house of Dreux
	religion = "catholic"
	culture = french
	father = 204987 #Robert II de Dreux
	mother = 204982 #Yolande de Coucy
	1195.1.1 = {
		birth = "1195.1.1"
	}
	#Étienne III de Bourgogne
	1258.1.1 = {
		death = "1258.1.1"
	}
}

91046 = {
	name = "Yolande" #Yolande de Dreux
	# AKA: Yolande de Dreux
	female = yes
	dynasty = 86 #Capetian house of Dreux
	religion = "catholic"
	culture = french
	father = 204987 #Robert II de Dreux
	mother = 204982 #Yolande de Coucy
	1196.1.1 = {
		birth = "1196.1.1"
	}
	1239.1.1 = {
		death = "1239.1.1"
	}
}

91047 = {
	name = "Jean" #Jean de Dreux, count of Mâcon and Vienne
	# AKA: Jean de Dreux, count of Macon and Vienne
	dynasty = 86 #Capetian house of Dreux
	religion = "catholic"
	culture = french
	father = 204987 #Robert II de Dreux
	mother = 204982 #Yolande de Coucy
	1198.1.1 = {
		birth = "1198.1.1"
	}
	1220.1.1 = {
		add_spouse = 91140 #Alix de Bourgogne
	}
	1234.1.1 = {
		trait = faith_warrior
	}
	1239.1.1 = {
		death = "1239.1.1"
	}
}

91048 = {
	name = "Jeanne" #Jeanne de Dreux
	# AKA: Jeanne de Dreux
	female = yes
	dynasty = 86 #Capetian house of Dreux
	religion = "catholic"
	culture = french
	trait = education_learning_1
	father = 204987 #Robert II de Dreux
	mother = 204982 #Yolande de Coucy
	1199.1.1 = {
		birth = "1199.1.1"
	}
	1272.1.1 = {
		death = "1272.1.1"
	}
}

91049 = {
	name = "Geoffroy" #Geoffroy de Dreux
	# AKA: Geoffroy de Dreux
	dynasty = 86 #Capetian house of Dreux
	religion = "catholic"
	culture = french
	father = 204987 #Robert II de Dreux
	mother = 204982 #Yolande de Coucy
	1200.1.1 = {
		birth = "1200.1.1"
	}
	1219.1.1 = {
		death = "1219.1.1"
	}
}

91050 = {
	name = "Philippe" #Philippe de Dreux, archbishop of Reims, bishop of Beauvais
	# AKA: Philippe de Dreux, archbishop of Reims
	dynasty = 86 #Capetian house of Dreux
	religion = "catholic"
	culture = french
	trait = education_learning_2
	father = CKU_montfort_61
	mother = 91135 #Agnès de Baudemont
	1158.1.1 = {
		birth = "1158.1.1"
	}
	1190.1.1 = {
		trait = faith_warrior
	}
	1217.11.2 = {
		death = "1217.11.2"
	}
}

91051 = {
	name = "Isabeau" #Isabeau de Dreux
	# AKA: Isabeau de Dreux
	female = yes
	dynasty = 86 #Capetian house of Dreux
	religion = "catholic"
	culture = french
	father = CKU_montfort_61
	mother = 91135 #Agnès de Baudemont
	1160.1.1 = {
		birth = "1160.1.1"
	}
	#Hugues III de Broyes (1178.1.1)
	1239.1.1 = {
		death = "1239.1.1"
	}
}

91052 = {
	name = "Pierre" #Pierre de Dreux
	# AKA: Pierre de Dreux
	dynasty = 86 #Capetian house of Dreux
	religion = "catholic"
	culture = french
	father = CKU_montfort_61
	mother = 91135 #Agnès de Baudemont
	1161.1.1 = {
		birth = "1161.1.1"
	}
	1186.1.1 = {
		death = "1186.1.1"
	}
}

91053 = {
	name = "Guillaume" #Guillaume de Dreux
	# AKA: Guillaume de Dreux
	dynasty = 86 #Capetian house of Dreux
	religion = "catholic"
	culture = french
	father = CKU_montfort_61
	mother = 91135 #Agnès de Baudemont
	1163.1.1 = {
		birth = "1163.1.1"
	}
	1190.1.1 = {
		death = "1190.1.1"
	}
}

91054 = {
	name = "Jean" #Jean de Dreux
	# AKA: Jean de Dreux
	dynasty = 86 #Capetian house of Dreux
	religion = "catholic"
	culture = french
	father = CKU_montfort_61
	mother = 91135 #Agnès de Baudemont
	1164.1.1 = {
		birth = "1164.1.1"
	}
	
	1190.1.1 = {
		death = "1190.1.1"
	}
}

91056 = {
	name = "Marguerite" #Marguerite de Dreux
	# AKA: Marguerite de Dreux
	female = yes
	dynasty = 86 #Capetian house of Dreux
	religion = "catholic"
	culture = french
	trait = education_learning_4
	father = CKU_montfort_61
	mother = 91135 #Agnès de Baudemont
	1167.1.1 = {
		birth = "1167.1.1"
	}
	1200.1.1 = {
		death = "1200.1.1"
	}
}

91128 = {
	name = "Alix" #Alix de Bretagne
	# AKA: Alix de Bretagne
	female = yes
	dynasty = 86 #Capetian house of Dreux
	religion = "catholic"
	culture = french
	father = 7621 #Jean I le Roux
	#Blanche de Navarre
	1243.1.1 = {
		birth = "1243.1.1"
	}
	1287.1.1 = {
		death = "1287.1.1"
	}
}

91166 = {
	name = "Yolande" #Yolande de Bretagne
	#AKA Yolande de Dreux
	female = yes
	dynasty = 86 #Capetian house of Dreux
	religion = "catholic"
	culture = french
	father = 7620 #Pierre I Mauclerc
	mother = 91139 #Alix de Thouars
	1218.1.1 = {
		birth = "1218.1.1"
	}
	#Spouse of Hugues XI de Lusignan
	1272.10.10 = {
		death = "1272.10.10"
	}
}

91225 = {
	name = "Arthur" #Arthur de Bretagne
	dynasty = 86 #Capetian house of Dreux
	religion = "catholic"
	culture = french
	father = 7620 #Pierre Mauclerc
	mother = 91139 #Alix de Thouars
	1220.1.1 = {
		birth = "1220.1.1"
	}
	1224.1.1 = {
		death = "1224.1.1" #shortly after 1223.1.1
	}
}

91226 = {
	name = "Olivier" #Olivier I de Machecoul
	dynasty_house = house_dreux_machecoul #Capetian house of Dreux
	religion = "catholic"
	culture = french
	father = 7620 #Pierre Mauclerc
	#Nicole
	1231.1.1 = {
		birth = "1231.1.1"
	}
	1279.1.1 = {
		death = "1279.1.1"
	}
}

91227 = {
	name = "Pierre" #Pierre de Bretagne
	dynasty = 86 #Capetian house of Dreux
	religion = "catholic"
	culture = french
	father = 7621 #Jean I le Roux
	mother = 71564 #Infanta doña Blanca de Navarra
	1245.4.2 = {
		birth = "1245.4.2"
	}
	1266.8.6 = {
		add_spouse = 487041 #Marguerite de Flandres
	}
	1268.10.19 = {
		death = "1268.10.19"
	}
}

91228 = {
	name = "Thibaut" #Thibaut de Bretagne
	dynasty = 86 #Capetian house of Dreux
	religion = "catholic"
	culture = french
	father = 7621 #Jean I le Roux
	mother = 71564 #Infanta doña Blanca de Navarra
	1245.7.23 = {
		birth = "1245.7.23"
	}
	1246.10.23 = {
		death = "1246.10.23"
	}
}

91229 = {
	name = "Thibaut" #Thibaut de Bretagne
	dynasty = 86 #Capetian house of Dreux
	religion = "catholic"
	culture = french
	father = 7621 #Jean I le Roux
	mother = 71564 #Infanta doña Blanca de Navarra
	1247.11.9 = {
		birth = "1247.11.9"
	}
	1255.1.1 = {
		death = "1255.1.1" #young
	}
}

91230 = {
	name = "AliE_nor" #Aliénor de Bretagne
	dynasty = 86 #Capetian house of Dreux
	female = yes
	religion = "catholic"
	culture = french
	father = 7621 #Jean I le Roux
	mother = 71564 #Infanta doña Blanca de Navarra
	1248.12.1 = {
		birth = "1248.12.1" #end 1248
	}
	1255.1.1 = {
		death = "1255.1.1" #young
	}
}

91231 = {
	name = "Nicolas" #Aliénor de Bretagne
	dynasty = 86 #Capetian house of Dreux
	religion = "catholic"
	culture = french
	father = 7621 #Jean I le Roux
	mother = 71564 #Infanta doña Blanca de Navarra
	1249.12.8 = {
		birth = "1249.12.8"
	}
	1251.8.14 = {
		death = "1251.8.14"
	}
}
91232 = {
	name = "Robert" #Robert de Bretagne
	dynasty = 86 #Capetian house of Dreux
	religion = "catholic"
	culture = french
	father = 7621 #Jean I le Roux
	mother = 71564 #Infanta doña Blanca de Navarra
	1251.3.6 = {
		birth = "1251.3.6"
	}
	1259.2.4 = {
		death = "1259.2.4"
	}
}
91233 = {
	name = "Pierre" #Pierre de Bretagne
	dynasty = 86 #Capetian house of Dreux
	religion = "catholic"
	culture = french
	father = 455789 #Jean II de Bretagne
	mother = 455791 #Béatrice d'Angleterre
	1269.1.1 = {
		birth = "1269.1.1"
	}
	1312.7.1 = {
		death = "1312.7.1"
	}
}
91234 = {
	name = "AliE_nor" #Aliénor de Bretagne
	female = yes
	dynasty = 86 #Capetian house of Dreux
	religion = "catholic"
	culture = french
	father = 455789 #Jean II de Bretagne
	mother = 455791 #Béatrice d'Angleterre
	1275.1.1 = {
		birth = "1275.1.1"
	}
	1342.5.16 = {
		death = "1342.5.16"
	}
}
91235 = {
	name = "Jean" #Jean bâtard de Bretagne
	dynasty = 86 #Capetian house of Dreux
	religion = "catholic"
	culture = french
	trait = bastard
	father = 455750 #Jean III le Bon
	1300.1.1 = {
		birth = "1300.1.1"
	}
	1360.1.1 = {
		death = "1360.1.1"
	}
}

91236 = {
	name = "Pierre" #Pierre de Bretagne, seigneur d'Avesnes
	dynasty = 86 #Capetian house of Dreux
	religion = "catholic"
	culture = french
	father = 455751 #Arthur II de Bretagne
	mother = 455590 #Marie de Limoges
	1289.1.1 = {
		birth = "1289.1.1"
	}
	1312.1.1 = {
		death = "1312.1.1"
	}
}

91237 = {
	name = "Jean" #Jean I de Dreux
	dynasty = 86 #Capetian house of Dreux
	religion = "catholic"
	culture = french
	father = 204989 #Robert III Gasteblé
	mother = 91138 #Aénor de Saint-Valery
	1215.1.1 = {
		birth = "1215.1.1"
	}
	1240.4.1 = {
		add_spouse = 91238 #Marie de Bourbon
	}
	1249.1.1 = {
		death = "1249.1.1"
	}
}

91239 = {
	name = "Robert" #Robert IV de Dreux
	dynasty = 86 #Capetian house of Dreux
	religion = "catholic"
	culture = french
	father = 91237 #Jean I de Dreux
	mother = 91238 #Marie de Bourbon
	1241.1.1 = {
		birth = "1241.1.1"
	}
	#1260 Béatrix, countess of Montfort
	1282.11.12 = {
		death = "1282.11.12"
	}
}
91240 = {
	name = "Yolande" #Yolande de Dreux
	female = yes
	dynasty = 86 #Capetian house of Dreux
	religion = "catholic"
	culture = french
	father = 91239 #Robert IV de Dreux
	#Béatrix de Montfort
	1269.1.1 = {
		birth = "1269.1.1"
	}
	1322.8.2 = {
		death = "1322.8.2"
	}
}

91241 = {
	name = "BE_atrix" #Béatrix de Dreux
	female = yes
	dynasty = 86 #Capetian house of Dreux
	religion = "catholic"
	culture = french
	father = 455751 #Arthur II de Bretagne
	mother = 91240 #Yolande de Dreux
	1295.12.7 = {
		birth = "1295.12.7"
	}
	1384.12.9 = {
		death = "1384.12.9"
	}
}
91242 = {
	name = "Jeanne" #Jeanne de Dreux
	female = yes
	dynasty = 86 #Capetian house of Dreux
	religion = "catholic"
	culture = french
	father = 455751 #Arthur II de Bretagne
	mother = 91240 #Yolande de Dreux
	1296.1.1 = {
		birth = "1296.1.1"
	}
	1364.3.24 = {
		death = "1364.3.24"
	}
}
91243 = {
	name = "Blanche" #Blanche de Dreux
	female = yes
	dynasty = 86 #Capetian house of Dreux
	religion = "catholic"
	culture = french
	father = 455751 #Arthur II de Bretagne
	mother = 91240 #Yolande de Dreux
	1300.7.18 = {
		birth = "1300.7.18"
	}
	1305.1.1 = {
		death = "1305.1.1" #young
	}
}

455755 = {
	name = "Jean" #Jean IV de Bretagne
	dynasty = 86 #Capetian house of Dreux
	religion = "catholic"
	culture = french
	father = 455751 #Arthur II de Bretagne
	mother = 91240 #Yolande de Dreux
	1293.1.1 = {
		birth = "1293.1.1"
	}
	1329.1.2 = {
		add_spouse = 455714
	}
	1345.9.26 = {
		death = "1345.9.26"
	}
}

455756 = {
	name = "Alix" #Alix de Bretagne
	female = yes
	dynasty = 86 #Capetian house of Dreux
	religion = "catholic"
	culture = french
	father = 455751 #Arthur II de Bretagne
	mother = 91240 #Yolande de Dreux
	1298.1.1 = {
		birth = "1298.1.1"
	}
	1377.5.1 = {
		death = "1377.5.1"
	}
}

455757 = {
	name = "Marie" #Marie de Bretagne
	female = yes
	dynasty = 86 #Capetian house of Dreux
	religion = "catholic"
	culture = french
	father = 455751 #Arthur II de Bretagne
	mother = 91240 #Yolande de Dreux
	1302.1.1 = {
		birth = "1302.1.1"
	}
	1371.5.24 = {
		death = "1371.5.24"
	}
}

455751 = {
	name = "Arthur" #Arthur II de Bretagne
	dynasty = 86 #Capetian house of Dreux
	religion = "catholic"
	culture = french
	father = 455789 #Jean II de Bretagne
	mother = 455791 #Béatrix d'Angleterre
	1262.7.25 = {
		birth = "1262.7.25"
	}
	1277.1.1 = {
		add_spouse = CKU_limoges_26 #Marie de Limoges
	}
	1292.5.1 = {
		add_spouse = 91240 #Yolande de Dreux
	}
	1312.8.27 = {
		death = "1312.8.27"
	}
}

455750 = {
	name = "Jean" #Jean III le Bon de Bretagne
	dynasty = 86
	religion = "catholic"
	culture = french
	trait = just
	father = 455751  #Arthur II de Bretagne
	mother = 455590  #Marie de Comborn
	1286.3.8 = {
		birth = "1286.3.8"
	}
	1298.1.1 = {
		add_spouse = 455510
		give_nickname = "nick_the_good"
	}
	1341.4.30 = {
		death = "1341.4.30"
	}
}

455754 = {
	name = "Guy" #Guy VII de Limoges
	dynasty = 86
	religion = "catholic"
	culture = french
	father = 455751  #Arthur II de Bretagne
	mother = 455590  #Marie de Comborn
	1287.1.1 = {
		birth = "1287.1.1"
	}
	1316.1.1 = {
		add_spouse = 455770
	}
	1331.3.27 = {
		death = "1331.3.27"
	}
}
159699 = {
	name = "Rudalt"
	religion = "catholic"
	culture = "breton"
	dynasty = 1029103 #de Rieux
	father = 159698
	880.1.1 = {
		birth = "880.1.1"
	}
	917.1.1 = {
		death = "917.1.1"
	}
}
159700 = {
	name = "Alan"
	religion = "catholic"
	culture = "breton"
	dynasty = 1029103 #de Rieux
	father = 159699
	910.1.1 = {
		birth = "910.1.1"
	}
	987.1.1 = {
		death = "987.1.1"
	}
}
159701 = {
	name = "Rudalt"
	religion = "catholic"
	culture = "breton"
	dynasty = 1029103 #de Rieux
	father = 159700
	950.1.1 = {
		birth = "950.1.1"
	}
	1021.1.1 = {
		death = "1021.1.1"
	}
}
159702 = {
	name = "Alan"
	religion = "catholic"
	culture = "breton"
	dynasty = 1029103 #de Rieux
	father = 159701
	980.1.1 = {
		birth = "980.1.1"
	}
	1051.1.1 = {
		death = "1051.1.1"
	}
}
159703 = {
	name = "Rudalt"
	religion = "catholic"
	culture = "breton"
	dynasty = 1029103 #de Rieux
	father = 159702
	1020.1.1 = {
		birth = "1020.1.1"
	}
	1066.1.1 = {
		death = "1066.1.1"
	}
}
159704 = {
	name = "Iocilin"
	religion = "catholic"
	culture = "breton"
	dynasty = 1029103 #de Rieux
	father = 159703
	1045.1.1 = {
		birth = "1045.1.1"
	}
	1107.1.1 = {
		death = "1107.1.1"
	}
}
159705 = {
	name = "Raoul"
	religion = "catholic"
	culture = "breton"
	dynasty = 1029103 #de Rieux
	father = 159703
	1045.1.1 = {
		birth = "1045.1.1"
	}
	1064.1.1 = {
		death = "1064.1.1"
	}
}
159706 = {
	name = "Alan"
	religion = "catholic"
	culture = "breton"
	dynasty = 1029103 #de Rieux
	father = 159705
	1064.1.1 = {
		birth = "1064.1.1"
	}
	1124.1.1 = {
		death = "1124.1.1"
	}
}
159707 = {
	name = "GuE_thenoc"
	religion = "catholic"
	culture = "breton"
	dynasty = 1029103 #de Rieux
	father = 159704
	1061.1.1 = {
		birth = "1061.1.1"
	}
	1127.1.1 = {
		death = "1127.1.1"
	}
}

2013 = {
	name = "Oddon"
	# AKA: Odo
	dynasty = 23113 #Châtillon
	martial = 6
	diplomacy = 4
	intrigue = 6
	stewardship = 8
	religion = "catholic"
	culture = french
	trait = diligent
	trait = zealous
	trait = education_learning_4
	father = 91189 #Milon de Châtillon
	1035.1.1 = {
		birth = "1035.1.1"
	}
	1087.9.16 = {
		name = "Urbanus"
	}
	1099.7.29 = {
		death = "1099.7.29"
	}
}

205979 = {
	name = "Marie"
	female = yes
	dynasty = 23113
	martial = 6
	diplomacy = 7
	intrigue = 4
	stewardship = 5
	religion = "catholic"
	culture = french
	trait = zealous
	trait = humble
	trait = education_diplomacy_3
	father = 6700
	mother = 91036
	1170.1.1 = {
		birth = "1170.1.1"
	}
	1227.1.1 = {
		death = "1227.1.1"
	}
}

223590 = {
	name = "Renaud"
	dynasty = 23113
	martial = 6
	diplomacy = 4
	intrigue = 3
	stewardship = 3
	religion = "catholic"
	culture = french
	trait = lustful
	trait = greedy
	trait = deceitful
	trait = wrathful
	trait = education_martial_3
	father = 223600
	mother = 223601
	1131.1.1 = {
		birth = "1131.1.1"
	}
	1153.1.1 = {
		add_spouse = 223720 #Constance de Hauteville
	}
	1176.1.1 = {
		add_spouse = 223592 #Stephanie de Milly
	}
	1187.7.4 = {
		death = "1187.7.4"
	}
}

223593 = {
	name = "Agnes"
	female = yes
	dynasty = 23113
	martial = 6
	diplomacy = 5
	intrigue = 8
	stewardship = 8
	religion = "catholic"
	culture = french
	trait = education_learning_3
	father = 223590
	mother = 223720
	1154.1.2 = {
		birth = "1154.1.2"
	}
	1184.1.9 = {
		death = "1184.1.9"
	}
}

223594 = {
	name = "Alix"
	female = yes
	dynasty = 23113
	martial = 7
	diplomacy = 7
	intrigue = 8
	stewardship = 8
	religion = "catholic"
	culture = french
	trait = education_learning_3
	father = 223590
	mother = 223720
	1157.1.2 = {
		birth = "1157.1.2"
	}
	1207.1.2 = {
		death = "1207.1.2"
	}
}

223600 = {
	name = "Henri" #Henri de Châtillon
	dynasty = 23113 #Châtillon
	religion = "catholic"
	culture = french
	father = 91187 #Gaucher I de Châtillon
	#unknown mother
	1063.1.1 = {
		birth = "1063.1.1"
	}
	1130.1.2 = {
		add_spouse = 223601 #Ermengarde de Montjay
	}
	1135.1.6 = {
		death = "1135.1.6" #after 1127
	}
}

455705 = {
	name = "Jeanne"
	female = yes
	dynasty = 23113
	martial = 5
	diplomacy = 7
	intrigue = 8
	stewardship = 7
	religion = "catholic"
	culture = french
	trait = lustful
	trait = greedy
	trait = education_intrigue_2
	father = 7479
	1319.1.2 = {
		birth = "1319.1.2"
	}
	1369.1.2 = {
		death = "1369.1.2"
	}
}

455774 = {
	name = "Hugues"
	dynasty = 23113 #Châtillon
	religion = "catholic"
	culture = french
	father = 7482
	mother = 161359 #Elizabeth de Saint-Pol
	1198.1.1 = {
		birth = "1198.1.1"
	}
	1220.1.1 = {
		add_spouse = 91061 #Marie d'Avesnes
	}
	1246.1.1 = {
		add_spouse = 161361 #Mathilde de Guines
	}
	1248.4.9 = {
		death = "1248.4.9"
	}
}

455775 = {
	name = "Gaucher"
	dynasty = 23113 #Châtillon
	religion = "catholic"
	culture = french
	father = 455774 #Hugues de Châtillon
	mother = 91061 #Marie d'Avesnes
	1230.1.1 = {
		birth = "1230.1.1"
	}
	1261.1.4 = {
		death = "1261.1.4"
	}
}

455776 = {
	name = "Gaucher"
	dynasty = 23113
	martial = 5
	diplomacy = 4
	intrigue = 6
	stewardship = 5
	religion = "catholic"
	culture = french
	trait = education_martial_2
	father = 455775
	1255.1.2 = {
		birth = "1255.1.2"
	}
	1329.1.4 = {
		death = "1329.1.4"
	}
}

455777 = {
	name = "Jean"
	dynasty = 23113
	martial = 7
	diplomacy = 6
	intrigue = 6
	stewardship = 7
	religion = "catholic"
	culture = french
	trait = lustful
	trait = brave
	trait = cynical
	trait = education_martial_2
	father = 455776
	1300.1.2 = {
		birth = "1300.1.2"
	}
	1329.1.4 = {
		death = "1329.1.4"
	}
}

455778 = {
	name = "Jeanne"
	female = yes
	dynasty = 23113
	martial = 5
	diplomacy = 6
	intrigue = 6
	stewardship = 5
	religion = "catholic"
	culture = french
	trait = temperate
	trait = diligent
	trait = craven
	trait = education_intrigue_1
	father = 455776
	1290.1.2 = {
		birth = "1290.1.2"
	}
	1354.1.4 = {
		death = "1354.1.4"
	}
}

455781 = {
	name = "Guy"
	dynasty = 23113
	martial = 4
	diplomacy = 6
	intrigue = 8
	stewardship = 5
	religion = "catholic"
	culture = french
	trait = stuttering
	trait = education_intrigue_2
	father = 455782
	1298.1.1 = {
		birth = "1298.1.1"
	}
	1311.1.1 = {
		add_spouse = 455511
	}
	1348.1.2 = {
		death = "1348.1.2"
	}
}

455782 = {
	name = "Hugues"
	dynasty = 23113
	martial = 6
	diplomacy = 4
	intrigue = 6
	stewardship = 5
	religion = "catholic"
	culture = french
	trait = education_intrigue_2
	father = 455786
	mother = 455408
	1253.1.1 = {
		birth = "1253.1.1"
	}
	1292.7.22 = {
		add_spouse = 455713
	}
	1307.1.1 = {
		death = "1307.1.1"
	}
}

455783 = {
	name = "Louis"
	dynasty = 23113 #Châtillon
	religion = "catholic"
	culture = french
	father = 455781 #Guy I de Châtillon
	mother = 455511 #Marguerite de Valois
	1315.1.1 = {
		birth = "1315.1.1"
	}
	1336.11.5 = {
		add_spouse = 91193 #Jeanne de Beaumont
	}
	1346.8.26 = {
		death = "1346.8.26"
	}
}

455784 = {
	name = "Charles"
	dynasty = 23113
	martial = 5
	diplomacy = 6
	intrigue = 6
	stewardship = 6
	religion = "catholic"
	culture = french
	trait = education_stewardship_2
	father = 455781
	mother = 455511
	1319.1.2 = {
		birth = "1319.1.2"
	}
	1337.6.4 = {
		add_spouse = 455753
	}
	1369.1.2 = {
		death = "1369.1.2"
	}
}

455785 = {
	name = "Marie"
	female = yes
	dynasty = 23113
	martial = 8
	diplomacy = 5
	intrigue = 6
	stewardship = 7
	religion = "catholic"
	culture = french
	trait = arrogant
	trait = education_diplomacy_3
	father = 455781
	mother = 455511
	1320.1.2 = {
		birth = "1320.1.2"
	}
	1370.1.2 = {
		death = "1370.1.2"
	}
}

455786 = {
	name = "Guy"
	dynasty = 23113
	martial = 7
	diplomacy = 4
	intrigue = 6
	stewardship = 5
	religion = "catholic"
	culture = french
	trait = education_martial_2
	father = 455774
	mother = 91061
	1226.1.1 = {
		birth = "1226.1.1"
	}
	1252.1.1 = {
		add_spouse = 455408 #Mathilde Reginar
	}
	1289.3.12 = {
		death = "1289.3.12"
	}
}

455787 = {
	name = "Guy"
	dynasty = 23113
	martial = 6
	diplomacy = 5
	intrigue = 6
	stewardship = 5
	religion = "catholic"
	culture = french
	trait = education_learning_3
	father = 455786
	1254.1.1 = {
		birth = "1254.1.1"
	}
	1284.1.1 = {
		add_spouse = 455788
	}
	1317.4.6 = {
		death = "1317.4.6"
	}
}

455790 = {
	name = "Isabeau"
	female = yes
	dynasty = 23113
	martial = 6
	diplomacy = 5
	intrigue = 6
	stewardship = 5
	religion = "catholic"
	culture = french
	trait = just
	trait = zealous
	trait = calm
	trait = education_intrigue_2
	father = 455787
	mother = 455788
	1296.1.1 = {
		birth = "1296.1.1"
	}
	1360.1.1 = {
		death = "1360.1.1"
	}
}

6700 = {
	name = "Guy"
	dynasty = 23113
	martial = 7
	diplomacy = 8
	intrigue = 7
	stewardship = 7
	religion = "catholic"
	culture = french
	trait = greedy
	trait = zealous
	trait = education_martial_3
	father = 6702
	1145.1.1 = {
		birth = "1145.1.1"
	}
	1162.1.1 = {
		add_spouse = 91036
	}
	1170.1.1 = {
		death = "1170.1.1"
	}
}

6702 = {
	name = "Gaucher"
	dynasty = 23113
	martial = 7
	diplomacy = 5
	intrigue = 7
	stewardship = 7
	religion = "catholic"
	culture = french
	trait = just
	trait = gluttonous
	trait = brave
	trait = education_stewardship_2
	father = 223600
	mother = 223601
	1129.1.1 = {
		birth = "1129.1.1"
	}
	1148.6.19 = {
		death = "1148.6.19"
	}
}

7479 = {
	name = "Jacques"
	dynasty = 23113
	religion = "catholic"
	culture = french
	father = 7480
	1283.1.1 = {
		birth = "1283.1.1"
	}
	1330.1.1 = {
		death = "1330.1.1"
	}
}

7480 = {
	name = "Jacques"
	dynasty = 23113
	religion = "catholic"
	culture = french
	father = 455786
	1260.1.1 = {
		birth = "1260.1.1"
	}
	1302.7.11 = {
		death = "1302.7.11"
	}
}

7481 = {
	name = "Guy"
	dynasty = 23113 #Châtillon
	religion = "catholic"
	culture = french
	father = 7482 #Gaucher III de Châtillon
	mother = 161359 #Elizabeth de Saint-Pol
	1197.1.1 = {
		birth = "1197.1.1"
	}
	1221.1.1 = {
		add_spouse = 91153 #Agnès de Donzy
	}
	1226.8.8 = {
		death = "1226.8.8"
	}
}

7482 = {
	name = "Gaucher"
	dynasty = 23113
	religion = "catholic"
	culture = french
	trait = zealous
	trait = humble
	trait = education_diplomacy_3
	father = 6700
	mother = 91036
	1164.1.1 = {
		birth = "1164.1.1"
	}
	1196.1.1 = {
		add_spouse = 161359
	}
	1219.1.1 = {
		death = "1219.1.1"
	}
}

91119 = {
	name = "Jean" #Jean de Blois-Châtillon
	# AKA: Jean I de Blois
	dynasty = 23113 #Châtillon
	religion = "catholic"
	culture = french
	father = 455774 #Hugues de Châtillon
	mother = 91061 #Marie d'Avesnes
	1225.1.1 = {
		birth = "1225.1.1"
	}
	1254.1.1 = {
		add_spouse = 91128 #Alix de Bretagne
	}
	1279.6.28 = {
		death = "1279.6.28"
	}
}

91136 = {
	name = "Jeanne" #Jeanne de Blois-Châtillon
	# AKA: Jeanne I de Blois Chatillon
	female = yes
	dynasty = 23113 #Châtillon
	religion = "catholic"
	culture = french
	father = 91119 #Jean de Blois-Châtillon
	mother = 91128 #Alix de Bretagne
	1258.1.1 = {
		birth = "1258.1.1"
	}
	1292.1.1 = {
		death = "1292.1.1"
	}
}

91154 = {
	name = "Yolande" #Yolande de Châtillon
	# AKA: Yolande de Chatillon
	female = yes
	dynasty = 23113 #Châtillon
	religion = "catholic"
	culture = french
	father = 7481	
	mother = 91153
	1222.1.1 = {
		birth = "1222.1.1"
	}
	#Archambaud de Bourbon (1228.5.30)
	1254.1.1 = {
		death = "1254.1.1"
	}
}

32221 = {
	name = "Beatrice"
	female = yes
	dynasty = 23113
	religion = "catholic"
	culture = french
	father = 455786
	mother = 455408
	1252.1.1 = {
		birth = "1252.1.1"
	}
	1304.1.1 = {
		death = "1304.1.1"
	}
}

91175 = {
	name = "ManassE_s" #Manassès II de Châtillon
	dynasty = 23113 #Châtillon
	religion = "catholic"
	culture = french
	trait = education_learning_3
	father = 91192 #Manassès le Chauve, vidame of Rheims
	1030.1.1 = {
		birth = "1030.1.1"
	}
	1106.9.17 = {
		death = "1106.9.17"
	}
}

91187 = {
	name = "Gaucher" #Gaucher I de Châtillon
	dynasty = 23113 #Châtillon
	religion = "catholic"
	culture = french
	father = 91188 #Guy I de Châtillon
	#Ermengarde of Coucy
	1030.1.1 = {
		birth = "1030.1.1"
	}
	1100.1.1 = {
		death = "1100.1.1" #[late 1100]
	}
}

91188 = {
	name = "Guy" #Guy I de Châtillon
	dynasty = 23113 #Châtillon
	religion = "catholic"
	culture = french
	father = 91189 #Milon de Châtillon
	#unknown mother
	1010.1.1 = {
		birth = "1010.1.1"
	}
	1080.1.1 = {
		death = "1080.1.1" #after 1076
	}
}

91189 = {
	name = "Milon" #Milon de Châtillon
	dynasty = 23113 #Châtillon
	religion = "catholic"
	culture = french
	father = 91190 #founder of Châtillon dynasty
	#unknown mother
	990.1.1 = {
		birth = "990.1.1"
	}
	1050.1.1 = {
		death = "1050.1.1"
	}
}

91190 = {
	name = "Guy" #Unknown founder of the Châtillon dynasty
	dynasty = 23113 #Châtillon
	religion = "catholic"
	culture = french
	960.1.1 = {
		birth = "960.1.1"
	}
	1020.1.1 = {
		death = "1020.1.1"
	}
}

91191 = {
	name = "Gervais" #Gervais de Châtillon
	dynasty = 23113 #Châtillon
	religion = "catholic"
	culture = french
	father = 91190 #founder of Châtillon dynasty
	#unknown mother
	988.1.1 = {
		birth = "988.1.1"
	}
	1040.1.1 = {
		death = "1040.1.1"
	}
}

91192 = {
	name = "ManassE_s" #Manassès le Chauve
	dynasty = 23113 #Châtillon
	religion = "catholic"
	culture = french
	father = 91191 #Gervais de Châtillon
	#unknown mother
	1010.1.1 = {
		birth = "1010.1.1"
	}
	1070.1.1 = {
		death = "1070.1.1"
	}
}

91196 = {
	name = "Gaucher" #Gaucher de Châtillon
	dynasty = 23113 #Châtillon
	religion = "catholic"
	culture = french
	father = 7481 #Gaucher de Châtillon
	mother = 91153 #Agnès de Donzy
	1225.1.1 = {
		birth = "1225.1.1"
	}
	1240.1.1 = {
		add_spouse = 91200 #Jeanne de Dammartin, countess of Boulogne
	}
	1251.4.6 = {
		death = "1251.4.6"
	}
}

138323 = {
	name = "Elias" #Elie II de Chatillon/Castillon Bishop of Agen
	religion = "catholic"
	culture = french
	#dynasty = 23113 #from another Chatillon dynasty
	1130.1.1 = {
		birth = "1130.1.1" #unknown
	}
	1180.1.1 = {
		death = "1180.1.1"  #unknown
	}
}

161362 = {
	name = "Mathilde"
	female = yes
	dynasty = 23113
	religion = "catholic"
	culture = french
	father = 455787
	mother = 455788
	1293.1.1 = {
		birth = "1293.1.1"
	}
	1358.10.3 = {
		death = "1358.10.3"
	}
}

161363 = {
	name = "Jean"
	dynasty = 23113
	religion = "catholic"
	culture = french
	father = 455787
	mother = 455788
	1290.1.1 = {
		birth = "1290.1.1"
	}
	1344.1.1 = {
		death = "1344.1.1"
	}
}

161364 = {
	name = "Guy"
	dynasty = 23113
	religion = "catholic"
	culture = french
	father = 161363
	1320.1.1 = {
		birth = "1320.1.1"
	}
	1360.1.1 = {
		death = "1360.1.1"
	}
}

454524 = {
	name = "Blanche"
	female = yes
	dynasty = 100
	martial = 5
	diplomacy = 7
	intrigue = 8
	stewardship = 7
	religion = "catholic"
	culture = french
	trait = education_intrigue_3
	father = 455405
	mother = 455408
	1243.1.2 = {
		birth = "1243.1.2"
	}
	1302.1.2 = {
		death = "1302.1.2"
	}
}

455405 = {
	name = "Robert"
	dynasty = 100
	martial = 7
	diplomacy = 6
	intrigue = 5
	stewardship = 7
	religion = "catholic"
	culture = french
	trait = education_martial_2
	father = 455402
	mother = 455403
	1216.9.25 = {
		birth = "1216.9.25"
	}
	1242.1.1 = {
		add_spouse = 455408 #Mathilde Reginar
	}
	1248.1.1 = {
		trait = faith_warrior
	}

	1250.2.8 = {
		death = "1250.2.8"
	}
}

455515 = {
	name = "Robert"
	dynasty = 100
	martial = 4
	diplomacy = 6
	intrigue = 5
	stewardship = 4
	religion = "catholic"
	culture = french
	trait = honest
	trait = education_intrigue_1
	father = 455516
	mother = 455517
	1287.1.2 = {
		birth = "1287.1.2"
	}
	1320.1.2 = {
		add_spouse = 161900
	}
	1337.1.2 = {
		death = "1337.1.2"
	}
}

455516 = {
	name = "Philippe"
	dynasty = 100
	martial = 4
	diplomacy = 4
	intrigue = 4
	stewardship = 4
	religion = "catholic"
	culture = french
	trait = education_learning_3
	father = 455546
	mother = 217509
	1269.1.2 = {
		birth = "1269.1.2"
	}
	1285.1.2 = {
		add_spouse = 455517
	}
	1298.9.11 = {
		death = "1298.9.11"
	}
}

455518 = {
	name = "Catherine"
	female = yes
	dynasty = 100
	martial = 5
	diplomacy = 4
	intrigue = 8
	stewardship = 7
	religion = "catholic"
	culture = french
	trait = education_intrigue_1
	father = 455516
	mother = 455517
	1296.1.2 = {
		birth = yes
	}
	1369.1.2 = {
		death = "1369.1.2"
	}
}

455519 = {
	name = "Louis"
	dynasty = 100
	martial = 6
	diplomacy = 7
	intrigue = 8
	stewardship = 8
	religion = "catholic"
	culture = french
	trait = ill
	trait = education_learning_3
	father = 455515
	mother = 161900
	1320.1.2 = {
		birth = "1320.1.2"
	}
	1326.1.2 = {
		death = "1326.1.2"
	}
}


455520 = {
	name = "Jean"
	dynasty = 100
	martial = 4
	diplomacy = 7
	intrigue = 4
	stewardship = 7
	religion = "catholic"
	culture = french
	trait = education_learning_3
	father = 455515
	mother = 161900
	1321.1.2 = {
		birth = "1321.1.2"
	}
	1371.1.2 = {
		death = "1371.1.2"
	}
}

455521 = {
	name = "Jeanne"
	female = yes
	dynasty = 100
	martial = 6
	diplomacy = 5
	intrigue = 7
	stewardship = 5
	religion = "catholic"
	culture = french
	trait = craven
	trait = education_learning_2
	father = 455515
	mother = 161900
	1323.1.2 = {
		birth = "1323.1.2"
	}
	1373.1.2 = {
		death = "1373.1.2"
	}
}

455522 = {
	name = "Jacques"
	dynasty = 100
	martial = 7
	diplomacy = 8
	intrigue = 7
	stewardship = 6
	religion = "catholic"
	culture = french
	trait = education_learning_2
	father = 455515
	mother = 161900
	1325.1.2 = {
		birth = "1325.1.2"
	}
	1375.1.2 = {
		death = "1375.1.2"
	}
}

455523 = {
	name = "Robert"
	dynasty = 100
	martial = 7
	diplomacy = 7
	intrigue = 5
	stewardship = 6
	religion = "catholic"
	culture = french
	trait = lazy
	trait = temperate
	trait = education_learning_2
	father = 455515
	mother = 161900
	1326.1.2 = {
		birth = "1326.1.2"
	}
	1376.1.2 = {
		death = "1376.1.2"
	}
}

455524 = {
	name = "Charles"
	dynasty = 100
	martial = 6
	diplomacy = 4
	intrigue = 5
	stewardship = 7
	religion = "catholic"
	culture = french
	trait = hunchbacked
	trait = education_learning_2
	father = 455515
	mother = 161900
	1328.1.2 = {
		birth = "1328.1.2"
	}
	1378.1.2 = {
		death = "1378.1.2"
	}
}

455545 = {
	name = "Jeanne" #d'Artois
	female = yes
	dynasty = 100
	religion = "catholic"
	culture = french
	father = 455516
	mother = 455517
	1289.1.2 = {
		birth = "1289.1.2"
	}
	#1301 married Gaston I de Foix 455544
	1350.3.26 = {
		death = "1350.3.26"
	}
}

455546 = {
	name = "Robert"
	dynasty = 100
	martial = 4
	diplomacy = 4
	intrigue = 4
	stewardship = 4
	religion = "catholic"
	culture = french
	trait = just
	trait = education_learning_3
	father = 455405
	mother = 455408
	1250.1.2 = {
		birth = "1250.1.2"
	}
	1259.1.1 = {
		add_spouse = 217509 #Amicie de Courtenay
	}
	1302.7.11 = {
		death = "1302.7.11"
	}
}

455825 = {
	name = "Marguerite" #d'Artois
	female = yes
	dynasty = 100
	religion = "catholic"
	culture = french
	father = 455516
	mother = 455517
	1285.1.2 = {
		birth = "1285.1.2"
	}
	1311.1.3 = {
		death = "1311.1.3"
	}
}

455941 = {
	name = "Marie"
	female = yes
	dynasty = 100
	martial = 8
	diplomacy = 7
	intrigue = 6
	stewardship = 8
	religion = "catholic"
	culture = french
	trait = lazy
	trait = arbitrary
	trait = brave
	trait = education_intrigue_2
	father = 455516
	mother = 455517
	1295.1.1 = {
		birth = "1295.1.1"
	}
	1336.1.1 = {
		death = "1336.1.1"
	}
}

91147 = {
	name = "Mahaut" #Mahaut d'Artois
	# AKA: Mahaut d'Artois
	female = yes
	dynasty = 100 #Capetian dynasty of Artois
	religion = "catholic"
	culture = french
	trait = ambitious
	trait = intellect_good_1
	father = 455546 #Robert II d'Artois
	mother = 217509 #Amicie de Courtenay
	1268.1.1 = {
		birth = "1268.1.1"
	}
	
	1329.10.28 = {
		death = "1329.10.28"
	}
}








71618 = {
	name = "Raimond-Arnaut" #Raymond Arnaud II de Dax
	# AKA: Raimond
	dynasty = 8757
	religion = "catholic"
	culture = occitan
	father = 138358 #Pierre Arnaud Dat de Mixe
	mother = 138355 #Guirande de Dax
	1109.1.1 = {
		birth = "1109.1.1"
	}
	1133.1.1 = {
		add_spouse = 71614 #Estefania de Barcelona
	}
	1167.1.1 = {
		death = "1167.1.1"
	}
}

71619 = {
	name = "PE_ire" #Pierre II de Dax
	# AKA: Peire
	dynasty = 8757
	religion = "catholic"
	culture = occitan
	father = 71618
	mother = 71614
	1134.1.1 = {
		birth = "1134.1.1"
	}
	1171.1.1 = {
		add_spouse = CKU_marsan_13 #Béatrice III de Bigorre
	}	
	1178.1.1 = {
		death = "1178.1.1"
	}
}

71620 = {
	name = "Navar" #Navarra/Navarrine de Dax
	female = yes
	dynasty = 8757

	father = 71619
	mother = CKU_marsan_13

	religion = catholic
	culture = occitan

	1172.1.1 = {
		birth = yes
	}
	1203.1.1 = {
		death = yes
	}
}

71621 = {
	name = "Navar" #Navarre de Dax
	dynasty = 8757
	female = yes
	religion = "catholic"
	culture = occitan
	trait = education_learning_1
	father = 71618
	mother = 71614
	1163.1.1 = {
		birth = "1163.1.1"
	}
	1234.1.1 = {
		death = "1234.1.1"
	}
}

138364 = {
	name = "Aner" #Aner I d'Oloron/Dax
	dynasty = 8757
	religion = "catholic"
	culture = occitan
	father = 7562 #Sancho IV de Gascogne
	928.1.1 = {
		birth = "928.1.1"
	}
	985.1.1 = {
		death = "985.1.1" #unknown
	}
}

138344 = {
	name = "Arnaut-Lop" #Arnaud I Loup de Dax/ Loup I d'Oloron
	dynasty = 8757
	religion = "catholic"
	culture = occitan
	father = 138364 #Aner I d'Oloron/Dax
	960.1.1 = {
		birth = "960.1.1"
	}
	985.1.1 = {
		add_spouse = 138345 #Sybille d'Armagnac
	}
	1000.1.1 = {
		death = "1000.1.1" #unknown
	}
}

138346 = {
	name = "Arnaut-Lop" #Arnaud II Loup "Fortis" de Dax
	dynasty = 8757
	religion = "catholic"
	culture = occitan
	father = 138344 #Arnaud Loup I de Dax
	mother = 138345 #Sybille d'Armagnac
	985.1.1 = {
		birth = "985.1.1"
		give_nickname = nick_the_strong
	}
	#1010.1.1 married Comtesse de Lomagne
	1028.11.1 = {
		death = "1028.11.1"
	}	
}

138348 = {
	name = "Raimond-Arnaut" #Raymond Arnaud I de Dax
	dynasty = 8757
	religion = "catholic"
	culture = occitan
	father = 138346 #Arnaud II Loup "Fortis" de Dax
	1010.1.1 = {
		birth = "1010.1.1"
	}
	1088.12.3 = {
		death = "1088.12.3"
	}	
}

138350 = {
	name = "Navar" #Navarre I de Dax
	dynasty = 8757
	religion = "catholic"
	culture = occitan
	female = yes
	father = 138348 #Raymond Arnaud I de Dax
	1050.1.1 = {
		birth = "1050.1.1" #unknown
	}
	1089.1.1 = {
		death = "1089.1.1"
	}	
}

138352 = {
	name = "Garcia-Arnaut" #Garcia Arnaud I de Dax
	dynasty = 8757
	religion = "catholic"
	culture = occitan
	father = 138346 #Arnaud II Loup "Fortis" de Dax
	1011.1.1 = {
		birth = "1011.1.1"
	}
	#1030 married Auria
	1065.1.1 = {
		death = "1065.1.1"
	}
}

138360 = {
	name = "Arnaut" #Arnaud I Garcia de Mixe
	dynasty = 8757
	religion = "catholic"
	culture = occitan
	father = 138352 #Garcia Arnaud I de Dax
	1030.1.1 = {
		birth = "1030.1.1"
	}
	1075.1.1 = {
		death = "1075.1.1"
	}
}

138362 = {
	name = "Dat-Arnaut" #Dat Arnaud de Mixe
	dynasty = 8757
	religion = "catholic"
	culture = occitan
	father = 138360 #Arnaud I Garcia de Mixe
	1070.1.1 = {
		birth = "1070.1.1"
	}
	1090.1.1 = {
		death = "1090.1.1"
	}
}

138354 = {
	name = "Arnaut" #Arnaud III Raymond de Dax
	dynasty = 8757
	religion = "catholic"
	culture = occitan
	father = 138348 #Raymond Arnaud I de Dax
	1055.1.1 = {
		birth = "1055.1.1" #unknown
	}
	1090.1.1 = {
		death = "1090.1.1"
	}
}

138356 = {
	name = "PEEire-Arnaut" #Pierre I Arnaud de Dax
	dynasty = 8757
	religion = "catholic"
	culture = occitan
	father = 138354 #Arnaud III de Dax
	1075.1.1 = {
		birth = "1075.1.1"
	}
	1120.1.1 = {
		death = "1120.1.1"
	}	
}

138355 = {
	name = "Guirande" #Guiraude/Guirelda de Dax
	female = yes
	dynasty = 8757
	religion = "catholic"
	culture = occitan
	father = 138354 #Arnaud III de Dax
	1080.1.1 = {
		birth = "1080.1.1"
	}
	#1105 married Pierre Arnald de Mixe
	1130.1.1 = {
		death = "1130.1.1"
	}	
}

138358 = {
	name = "PEEire-Arnaut" #Arnaud Dat de Mixe
	dynasty = 8757
	religion = "catholic"
	culture = occitan
	father = 138362 #Dat Arnaud de Mixe
	1085.1.1 = {
		birth = "1085.1.1" #unknown
	}
	1105.1.1 = {
		add_spouse = 138355 #Guirelda de Dax
	}
	1140.1.1 = {
		death = "1140.1.1"
	}	
}

205725 = {
	name = "Pierre" #Pierre II de Courtenay, eastern emperor
	dynasty = CKU_courtenay #Capetian house of Courtenay
	religion = "catholic"
	culture = french
	trait = greedy
	trait = wrathful
	trait = brave
	father = CKU_fr_courtenay_23 #Pierre I de Courtenay
	# mother = Élisabeth de Courtenay
	1165.1.1 = {
		birth = "1165.1.1"
	}
	1184.1.1 = {
		add_spouse = 205710 #Agnès I de Nevers
	}
	1190.6.24 = {
		trait = faith_warrior
	}
	1193.1.1 = {
		remove_trait = faith_warrior
		add_spouse = 205526 #Yolande de Hainaut
	}
	1219.1.1 = {
		death = "1219.1.1"
	}
}

205726 = {
	name = "Mahaut" #Mahaut/Mathilde de Courtenay
	female = yes
	dynasty = CKU_courtenay #Capetian house of Courtenay
	religion = "catholic"
	culture = french
	father = 205725 #Pierre II de Courtenay
	mother = 205710 #Agnès de Nevers
	1188.1.1 = {
		birth = "1188.1.1"
	}
	#Hervé IV de Donzy (1199.10.1)
	#Guy IV de Forez (1226.7.1)
	1257.7.29 = {
		death = "1257.7.29"
	}
}

205727 = {
	name = "Robert" #Robert II de Courtenay
	dynasty_house = house_courtenay_champignelles #Capetian house of Courtenay
	religion = "catholic"
	culture = french
	father = CKU_fr_courtenay_23 #Pierre I de Courtenay
	# mother = Élisabeth de Courtenay
	1168.1.1 = {
		birth = "1168.1.1"
	}
	1239.1.1 = {
		death = "1239.1.1"
	}
}

217508 = {
	name = "Pierre" #Pierre de Courtenay
	dynasty_house = house_courtenay_champignelles #de Courtenay
	religion = "catholic"
	culture = french
	father = 205727 #Robert II de Courtenay
	#mother = #Mahaut de Mehun
	1218.1.1 = {
		birth = yes
	}
	#1249.1.1 = {
	#	add_spouse = #Petronille de Joigny
	#}
	1250.2.8 = {
		death = yes
	}
}

217509 = {
	name = "Amicie" #Amicie de Courtenay
	dynasty_house = house_courtenay_champignelles #de Courtenay
	religion = "catholic"
	culture = french
	father = 217508 #Pierre de Courtenay
	#mother = #Petronille de Joigny
	female = yes
	1250.1.1 = {
		birth = yes
	}
	#1259.1.1 = {
	#	add_spouse = 455546 #Robert II d'Artois
	#}
	1275.1.1 = {
		death = yes
	}
}

205728 = {
	name = "Guillaume" #Guillaume de Courtenay, lord of Tanlay
	dynasty_house = house_courtenay_tanlay #Capetian house of Courtenay
	religion = "catholic"
	culture = french
	father = CKU_fr_courtenay_23 #Pierre I de Courtenay
	# mother = Élisabeth de Courtenay
	1172.1.1 = {
		birth = "1172.1.1"
	}
	1248.1.1 = {
		death = "1248.1.1"
	}
}

205729 = {
	name = "Alice" #Alice de Courtenay
	# AKA: Alix
	female = yes
	dynasty = CKU_courtenay #Capetian house of Courtenay
	religion = "catholic"
	culture = french
	father = CKU_fr_courtenay_23 #Pierre I de Courtenay
	# mother = Élisabeth de Courtenay
	1160.1.1 = {
		birth = "1160.1.1"
	}
	#Guillaume de Joigny
	#1186 Aymar Taillefer d'Angoulême 205640	
	1218.2.12 = {
		death = "1218.2.12"
	}
}

91057 = {
	name = "Marguerite" #Marguerite de Courtenay
	# AKA: Marguerite de Courtenay
	female = yes
	dynasty = CKU_courtenay #Capetian house of Courtenay
	religion = "catholic"
	culture = french
	father = 205725 #Pierre II de Courtenay
	mother = 205526 #Yolande de Hainaut
	1194.1.1 = {
		birth = "1194.1.1"
	}
	#Raoul I de Lusignan ( ? - 1213.1.1)
	#Henri I de Vianden (1217.1.1)
	1270.1.1 = {
		death = "1270.1.1"
	}
}

91058 = {
	name = "Philippe" #Philippe II à la Lèvre, marquess of Namur
	# AKA: Philippe II a la Levre, marquess of Namur
	dynasty = CKU_courtenay #Capetian house of Courtenay
	religion = "catholic"
	culture = french
	father = 205725 #Pierre II de Courtenay
	mother = 205526 #Yolande de Hainaut
	1195.1.1 = {
		birth = "1195.1.1"
	}
	1226.1.1 = {
		trait = ill
		trait = faith_warrior
	}
	1226.1.30 = {
		death = "1226.1.30"
	}
}

91059 = {
	name = "Sibylle" #Sybille de Courtenay
	# AKA: Sibylle de Courtenay
	female = yes
	dynasty = CKU_courtenay #Capetian house of Courtenay
	religion = "catholic"
	culture = french
	trait = education_learning_1
	father = 205725 #Pierre II de Courtenay
	mother = 205526 #Yolande de Hainaut
	1197.1.1 = {
		birth = "1197.1.1"
	}
	1210.1.1 = {
		death = "1210.1.1"
	}
}

91060 = {
	name = "E_lisabeth" #Élisabeth de Courtenay
	# AKA: Elisabeth de Courtenay
	female = yes
	dynasty = CKU_courtenay #Capetian house of Courtenay
	religion = "catholic"
	culture = french
	father = 205725 #Pierre II de Courtenay
	mother = 205526 #Yolande de Hainaut
	1199.1.1 = {
		birth = "1199.1.1"
	}
	#Gaucher de Bar-sur-Seine
	#Eudes de Bourgogne (1220.1.1)
	
	1270.1.1 = {
		death = "1270.1.1"
	}
}

91061 = {
	name = "Marie" #Marie d'Avesnes
	# AKA: Marie d'Avesnes
	female = yes
	dynasty = 323 #Maison d'Oisy d'Avesnes
	religion = "catholic"
	culture = french
	father = 91055 #Gauthier d'Avesnes
	mother = 205894 #Marguerite de Blois
	1201.1.1 = {
		birth = "1201.1.1"
	}
	1245.1.1 = {
		death = "1245.1.1" #after the 12th of April 1241
	}
}

91062 = {
	name = "Robert" #Robert I de Courtenay, latin emperor
	# AKA: Robert I de Courtenay, latin emperor
	dynasty = CKU_courtenay #Capetian house of Courtenay
	stewardship = 3
	religion = "catholic"
	culture = french
	trait = lustful
	trait = gluttonous
	trait = craven
	father = 205725 #Pierre II de Courtenay
	mother = 205526 #Yolande de Hainaut
	1201.1.1 = {
		birth = "1201.1.1"
	}
	1228.1.1 = {
		trait = ill
	}
	1228.1.30 = {
		death = "1228.1.30"
	}
}

91063 = {
	name = "AgnE_s" #Agnès de Courtenay
	# AKA: Agnes de Courtenay
	female = yes
	dynasty = CKU_courtenay #Capetian house of Courtenay
	religion = "catholic"
	culture = french
	father = 205725 #Pierre II de Courtenay
	mother = 205526 #Yolande de Hainaut
	1202.1.1 = {
		birth = "1202.1.1"
	}
	#Geoffroy II de Villehardouin (1217.1.1°
	1250.1.1 = {
		death = "1250.1.1"
	}
}

91064 = {
	name = "Marie" #Marie de Courtenay
	# AKA: Marie de Courtenay
	female = yes
	dynasty = CKU_courtenay #Capetian house of Courtenay
	religion = "catholic"
	culture = french
	father = 205725 #Pierre II de Courtenay
	mother = 205526 #Yolande de Hainaut
	1204.1.1 = {
		birth = "1204.1.1"
	}
	#Théodore I Lascaris (1219.1.1)
	1222.1.1 = {
		death = "1222.1.1"
	}
}

91065 = {
	name = "Henri" #Henri de Courtenay, marquess of Namur
	# AKA: Henri de Courtenay, marquess of Namur
	dynasty = CKU_courtenay #Capetian house of Courtenay
	religion = "catholic"
	culture = french
	father = 205725 #Pierre II de Courtenay
	mother = 205526 #Yolande de Hainaut
	1206.1.1 = {
		birth = "1206.1.1"
	}
	#guardian = #Enguerrand III de Coucy
	1229.1.1 = {
		death = "1229.1.1"
	}
}

91066 = {
	name = "E_lE_onore" #Éléonore de Courtenay
	# AKA: Eleonore de Courtenay
	female = yes
	dynasty = CKU_courtenay #Capetian house of Courtenay
	religion = "catholic"
	culture = french
	father = 205725 #Pierre II de Courtenay
	mother = 205526 #Yolande de Hainaut
	1208.1.1 = {
		birth = "1208.1.1"
	}
	#Philippe I de Montfort
	1230.1.1 = {
		death = "1230.1.1"
	}
}

91067 = {
	name = "Constance" #Constance de Courtenay
	# AKA: Constance de Courtenay
	female = yes
	dynasty = CKU_courtenay #Capetian house of Courtenay
	religion = "catholic"
	culture = french
	trait = education_learning_3
	father = 205725 #Pierre II de Courtenay
	mother = 205526 #Yolande de Hainaut
	1210.1.1 = {
		birth = "1210.1.1"
	}
	1260.1.1 = {
		death = "1260.1.1"
	}
}

91068 = {
	name = "Baudouin" #Baudouin II de Courtenay
	# AKA: Baudouin II de Courtenay
	dynasty = CKU_courtenay #Capetian house of Courtenay
	religion = "catholic"
	culture = french
	father = 205725 #Pierre II de Courtenay
	mother = 205526 #Yolande de Hainaut
	1217.1.1 = {
		birth = "1217.1.1"
	}
	1234.1.1 = {
		add_spouse = 91141 #Marie de Brienne
	}
	1273.1.1 = {
		death = "1273.1.1"
	}
}

91070 = {
	name = "Eustachie" #Eustachie de Courtenay
	# AKA: Eustachie de Courtenay
	female = yes
	dynasty = CKU_courtenay #Capetian house of Courtenay
	religion = "catholic"
	culture = french
	father = CKU_fr_courtenay_23 #Pierre I de Courtenay
	# mother = Élisabeth de Courtenay
	1163.1.1 = {
		birth = "1163.1.1"
	}
	#Guillaume de Brienne
	#Guillaume I de Champlitte
	#Guillaume I de Sancesse
	1240.1.1 = {
		death = "1240.1.1"
	}
}

91071 = {
	name = "ClE_mence" #Clémence de Courtenay
	# AKA: Clemence de Courtenay
	female = yes
	dynasty = CKU_courtenay #Capetian house of Courtenay
	religion = "catholic"
	culture = french
	father = CKU_fr_courtenay_23 #Pierre I de Courtenay
	# mother = Élisabeth de Courtenay
	1165.1.1 = {
		birth = "1165.1.1"
	}
	#Gui VI de Thiers
	1250.1.1 = {
		death = "1250.1.1"
	}
}

91073 = {
	name = "Isabelle" #Isabelle de Courtenay
	# AKA: Isabelle de Courtenay
	female = yes
	dynasty = CKU_courtenay #Capetian house of Courtenay
	religion = "catholic"
	culture = french
	father = CKU_fr_courtenay_23 #Pierre I de Courtenay
	# mother = Élisabeth de Courtenay
	1170.1.1 = {
		birth = "1170.1.1"
	}
	#Aymon de Charost
	1230.1.1 = {
		death = "1230.1.1"
	}
}

91074 = {
	name = "Constance" #Constance de Courtenay
	# AKA: Constance de Courtenay
	female = yes
	dynasty = CKU_courtenay #Capetian house of Courtenay
	religion = "catholic"
	culture = french
	father = CKU_fr_courtenay_23 #Pierre I de Courtenay
	# mother = Élisabeth de Courtenay
	1171.1.1 = {
		birth = "1171.1.1"
	}
	#Gasce de Poissy
	1235.1.1 = {
		death = "1235.1.1"
	}
}

98024 = {
	name = "Yolande" #Yolande de Courtenay
	female = yes
	dynasty = CKU_courtenay #Capetian house of Courtenay
	religion = "catholic"
	culture = french
	father = 205725 #Pierre II de Courtenay
	mother = 205526 #Yolande de Hainaut
	1200.1.1 = {
		birth = "1200.1.1"
	}
	#André II de Hongrie (1215.1.1)
	1233.1.1 = {
		death = "1233.1.1"
	}
}

32790 = {
	name = "Philippe"
	dynasty = CKU_courtenay #Capetian house of Courtenay
	religion = "catholic"
	culture = french
	father = 91068 #Baudouin II
	mother = 91141 #Marie de Brienne
	1243.1.1 = {
		birth = "1243.1.1"
	}
	1273.1.1 = {
		add_spouse = 32788 #Beatrice d'Anjou
	}
	1283.1.1 = {
		death = "1283.1.1"
	}
}

32791 = {
	name = "Catherine"
	female = yes
	dynasty = CKU_courtenay #Capetian house of Courtenay
	religion = "catholic"
	culture = french
	father = 32790
	mother = 32788
	1274.11.25 = {
		birth = "1274.11.25"
	}
	#married Charles Valois
	1307.10.11 = {
		death = "1307.10.11"
	}
}

32792 = {
	name = "Helene"
	female = yes
	dynasty = CKU_courtenay #Capetian house of Courtenay
	religion = "catholic"
	culture = french
	father = 91068 #Baudouin II
	mother = 91141 #Marie de Brienne
	1244.1.1 = {
		birth = "1244.1.1"
	}
	#married Stefan Uros
	1314.1.1 = {
		death = "1314.1.1"
	}
}

91170 = {
	name = "Jean" #Jean I de Courtenay-Champignelles
	dynasty_house = house_courtenay_champignelles #Capetian house of Courtenay
	religion = "catholic"
	culture = french
	trait = education_learning_2
	father = 205727 #Robert I de Courtenay
	#Mahaut de Mehun-sur-Yèvre
	1226.1.1 = {
		birth = "1226.1.1"
	}
	1270.5.1 = {
		trait = faith_warrior
	}
	1270.8.20 = {
		death = "1270.8.20"
	}
}

91171 = {
	name = "Guillaume" #Guillaume I de Courtenay
	dynasty_house = house_courtenay_champignelles #Capetian house of Courtenay
	religion = "catholic"
	culture = french
	father = 205727 #Robert I de Courtenay
	#Mahaut de Mehun-sur-Yèvre
	1228.1.1 = {
		birth = "1228.1.1"
	}
	1280.1.1 = {
		death = "1280.1.1"
	}
}

91172 = {
	name = "Robert" #Robert de Courtenay-Champignelles
	dynasty_house = house_courtenay_champignelles #Capetian house of Courtenay
	religion = "catholic"
	culture = french
	trait = education_learning_3
	father = 91171 #Guillaume I de Courtenay
	#Marguerite de Bourgogne
	1251.1.1 = {
		birth = "1251.1.1"
	}
	1324.1.1 = {
		death = "1324.1.1"
	}
}

205564 = {
	name = "Rogier" #Roger de Couserans
	dynasty_house = house_comminges_couserans #de Comminges
	religion = "catholic"
	culture = occitan
	father = 205561 #Bernard III Dodon de Comminges/de Samatan
	mother = 205535 #Laurence de Toulouse
	1153.1.1 = {
		birth = "1153.1.1"
	}
	1181.1.1 = {
		add_spouse = 205555 #Sybille de Foix
	}
	1211.4.3 = {
		death = "1211.4.3"
	}
}

40180 = {
	name = "Arnaut" #Arnaud I de Comminges
	dynasty = CKU_comminges #was 684 de Foix
	religion = "catholic"
	culture = occitan
	father = 138188 #Aznar III de Comminges
	920.1.1 = {
		birth = "920.1.1"
	}
	#married Arsinde de Carcassonne
	957.11.27 = {
		death = "957.11.27"
	}
}

40196 = {
	name = "Odon" #Odon I de Razès/Comminges
	# AKA: Odo
	dynasty = CKU_comminges #was 684 de Foix
	religion = "catholic"
	culture = occitan
	father = 40180 #Arnaud I de Comminges
	950.1.1 = {
		birth = "950.1.1"
	}
	1011.1.1 = {
		death = "1011.1.1"
	}
}

40198 = {
	name = "Arnaut" #Arnaud II de Razès
	dynasty = CKU_comminges #was 684 de Foix
	religion = "catholic"
	culture = occitan
	father = 40196 #Odon I de Razès/Comminges
	975.1.1 = {
		birth = "975.1.1"
	}
	1037.1.1 = {
		death = "1037.1.1"
	}
}

323 = {
	name = "AmE_lie" #Amélie de Montignac
	female = yes
	dynasty = CKU_comminges #was 684 de Foix
	religion = "catholic"
	culture = occitan
	father = 40198 #Arnaud II de Razès
	1000.1.1 = {
		birth = "1000.1.1"
	}
	#1017 married Bernard I de la marche 322
	1053.1.1 = {
		death = "1053.1.1"
	}
}

40182 = {
	name = "Rogier" #Rogier I de Carcassonne
	dynasty = CKU_comminges #was 684 de Foix
	religion = "catholic"
	culture = occitan
	father = 40180 #Arnaud I de Comminges
	950.1.1 = {
		birth = "950.1.1"
		give_nickname = nick_the_old
	}
	#970.4 married Adélaide de Rouerge de Pons
	1011.4.1 = {
		death = "1011.4.1"
	}
}

40184 = {
	name = "Raimond-Rogier" #Raymond Roger de Carcassonne
	# AKA: Raimond
	dynasty = CKU_comminges #was 684 de Foix
	religion = "catholic"
	culture = occitan
	father = 40182 #Rogier I de Comminges
	980.1.1 = {
		birth = "980.1.1"
	}
	1011.4.1 = {
		death = "1011.4.1"
	}
}

40186 = {
	name = "PEEire-Raimond" #Pierre-Raymond de Carcassonne
	# AKA: Peire
	dynasty = CKU_comminges #was 684 de Foix
	religion = "catholic"
	culture = occitan
	father = 40184 #Raymond Roger de Carcassonne
	1010.1.1 = {
		birth = "1010.1.1"
	}
	1050.1.1 = {
		add_spouse = 40203 #Rangearde de Trencavel
	}
	1060.1.1 = {
		death = "1060.1.1"
	}
}

40187 = {
	name = "Ermengarda" #de Foix/Comminges
	female = yes
	dynasty = CKU_comminges #was 684 de Foix
	religion = "catholic"
	culture = occitan
	father = 40186 #Pierre-Raymond de Carcassonne
	mother = 40203 #Rangearde de Trencavel
	1050.1.1 = {
		birth = "1050.1.1"
	}
	#1062.1.3 married Raymond Bernard Trencavel
	1101.1.1 = {
		death = "1101.1.1"
	}
}

455551 = {
	name = "AliE_nor" #Eléonore de Comminges
	# AKA: Eleonore
	female = yes
	dynasty = CKU_comminges
	religion = "catholic"
	culture = occitan
	father = 455550 #Bernard VII de Comminges
	1298.1.1 = {
		birth = "1298.1.1"
	}
	#1327 married Gaston II de Foix 455540
	1365.5.16 = {
		death = "1365.5.16"
	}
}

138190 = {
	name = "Rogier" #Roger I de Comminges
	dynasty = CKU_comminges
	religion = "catholic"
	culture = occitan
	father = 138188 #Aznar III de Comminges
	919.1.1 = {
		birth = "919.1.1"
	}
	949.4.7 = {
		death = "949.4.7"
	}
}

138191 = {
	name = "Arsenda" #Arsinde de Comminges
	female = yes
	dynasty = CKU_comminges
	religion = "catholic"
	culture = occitan
	father = 40180 #Arnaud I de Comminges
	950.1.1 = {
		birth = "950.1.1"
	}
	#968 married Guillaume I de Provence
	982.1.1 = {
		death = "982.1.1"
	}
}

138192 = {
	name = "Arnaut" #Arnaud II de Comminges
	dynasty = CKU_comminges
	religion = "catholic"
	culture = occitan
	father = 138190 #Roger I de Comminges
	940.1.1 = {
		birth = "940.1.1" #unknown
	}
	1003.1.1 = {
		death = "1003.1.1"
	}
}

138193 = {
	name = "Rogier" #Roger II de Comminges
	dynasty = CKU_comminges
	religion = "catholic"
	culture = occitan
	father = 138192 #Arnaud II de Comminges
	980.1.1 = {
		birth = "980.1.1" #unknown
	}
	1035.1.1 = {
		death = "1035.1.1"
	}	
}

138189 = {
	name = "Odon" #Odon I de Comminges
	dynasty = CKU_comminges
	religion = "catholic"
	culture = occitan
	father = 138192 #Arnaud II de Comminges
	981.1.1 = {
		birth = "981.1.1" #unknown
	}
	1035.5.1 = {
		death = "1035.5.1"
	}	
}

138194 = {
	name = "Arnaut" #Arnaud III de Comminges
	dynasty = CKU_comminges
	religion = "catholic"
	culture = occitan
	father = 138193 #Roger II de Comminges
	1035.1.1 = {
		birth = "1035.1.1" #unknown
	}
	1070.1.1 = {
		death = "1070.1.1"
	}
}

138196 = {
	name = "Rogier" #Roger III de Comminges
	dynasty = CKU_comminges
	religion = "catholic"
	culture = occitan
	father = 138194 #Arnaud III de Comminges
	1060.1.1 = {
		birth = "1060.1.1" #unknown
	}
	1105.1.1 = {
		death = "1105.1.1"
	}
}

138198 = {
	name = "Bernat" #Bernard I de Comminges
	dynasty = CKU_comminges
	religion = "catholic"
	culture = occitan
	father = 138196 #Roger III de Comminges
	1090.1.1 = {
		birth = "1090.1.1"
	}
	1145.1.1 = {
		death = "1145.1.1"
	}	
}

138199 = {
	name = "Bernate" #Bernarde de Comminges
	female = yes
	dynasty = CKU_comminges
	religion = "catholic"
	culture = occitan
	father = 138198 #Bernard I de Comminges
	1121.1.1 = {
		birth = "1121.1.1" #unknown
	}
	#1139.4.28 Roger de Béziers
	1150.8.12 = {
		death = "1150.8.12"
	}
}

138200 = {
	name = "Bernat" #Bernard II de Comminges
	dynasty = CKU_comminges
	religion = "catholic"
	culture = occitan
	father = 138198 #Bernard I de Comminges
	1119.1.1 = {
		birth = "1119.1.1" #unknown
	}
	1153.1.1 = {
		death = "1153.1.1"
	}	
}

205561 = {
	name = "Dodon" #Bernard III Dodon de Comminges/de Samatan
	# AKA: Dodon
	dynasty = CKU_comminges
	religion = "catholic"
	culture = occitan
	father = 138198
	1125.1.1 = {
		birth = "1125.1.1"
	}
	1149.1.1 = {
		add_spouse = 205535 #Laurence de Toulouse
		name = "Bernat"
	}
	1176.1.1 = {
		death = "1176.1.1"
	}
}

205560 = {
	name = "Bernat" #Bernard IV de Comminges
	dynasty = CKU_comminges
	religion = "catholic"
	culture = occitan
	father = 205561 #Bernard III Dodon de Comminges/de Samatan
	mother = 205535 #Laurence de Toulouse
	1150.1.1 = {
		birth = "1150.1.1"
	}
	1180.1.1 = {
		add_spouse = CKU_marsan_13 #Béatrice de Bigorre
	}
	1192.1.1 = {
		remove_spouse = CKU_marsan_13
	}
	#1195 married Comtors de la barthe
	1197.12.7 = {
		add_spouse = 205582 #Marie I de Montpellier
	}
	1201.1.1 = {
		remove_spouse = 205582
	}
	1225.2.22 = {
		death = "1225.2.22"
	}
}

205565 = {
	name = "Fortaner" #Fortanier de Comminges
	# AKA: Arnaud
	dynasty = CKU_comminges
	religion = "catholic"
	culture = occitan
	father = 205561 #Bernard III Dodon de Comminges/de Samatan
	mother = 205535 #Laurence de Toulouse
	1158.1.1 = {
		birth = "1158.1.1"
	}
	1208.1.1 = {
		death = "1208.1.1"
	}
}

205566 = {
	name = "Gui" #Guy de Peguilhan
	dynasty = CKU_comminges #de Comminges
	religion = "catholic"
	culture = occitan
	father = 205561 #Bernard III Dodon de Comminges/de Samatan
	mother = 205535 #Laurence de Toulouse
	1160.1.1 = {
		birth = "1160.1.1"
	}
	1210.1.1 = {
		death = "1210.1.1"
	}
}

205567 = {
	name = "Bernat" #Bernard de Couserans
	dynasty_house = house_comminges_couserans
	religion = "catholic"
	culture = occitan
	father = 205564 #Roger de Couserans
	mother = 205555 #Sybille de Foix
	1180.1.1 = {
		birth = "1180.1.1"
	}
	1230.1.1 = {
		death = "1230.1.1"
	}
}

138202 = {
	name = "Bernat" #Bernard V de Comminges
	dynasty = CKU_comminges
	religion = "catholic"
	culture = occitan
	father = 205560 #Bernard IV de Comminges
	1196.1.1 = {
		birth = "1196.1.1"
	}
	1224.5.6 = {
		add_spouse = CKU_foix_36 #Cécile de Foix
	}	
	1241.11.30 = {
		death = "1241.11.30"
	}
}

138204 = {
	name = "Bernat" #Bernard VI de Comminges
	dynasty = CKU_comminges
	religion = "catholic"
	culture = occitan
	father = 138202 #Bernard V de Comminges
	mother = CKU_foix_36 #Cécile de Foix
	1225.1.1 = {
		birth = "1225.1.1"
	}
	#1245.8.26 married Therese ?
	1295.1.1 = {
		death = "1295.1.1"
	}
}

138195 = {
	name = "MascarO_sa" #Mascarose de Comminges
	female = yes
	dynasty = CKU_comminges
	religion = "catholic"
	culture = occitan
	father = 138204 #Bernard VI de Comminges
	1246.6.1 = {
		birth = "1246.6.1" #unknown
	}
	#1270.10.12 married Henri II de Rodez 138312
	1292.1.1 = {
		death = "1292.1.1"
	}	
}

455550 = {
	name = "Bernat" #Bernard VII de Comminges
	dynasty = CKU_comminges
	religion = "catholic"
	culture = occitan
	father = 138204 #Bernard VI de Comminges
	1246.1.1 = {
		birth = "1246.1.1"
	}
	#married Laure de Montfort
	1312.7.21 = {
		death = "1312.7.21"
	}
}

455555 = {
	name = "PEEire-Raimond" #Pierre-Raymond I de Comminges
	# AKA: Pierre
	dynasty = CKU_comminges
	religion = "catholic"
	culture = occitan
	father = 455550 #Bernard VII de Comminges
	#mother Laure de Montfort
	1290.1.1 = {
		birth = "1290.1.1" #unknown
	}
	#married Françoise de Fézensac
	1341.4.16 = {
		death = "1341.4.16"
	}
}

455552 = {
	name = "Joan-Raimond" #Jean-Raymond de Comminges
	# AKA: Jean
	dynasty = CKU_comminges
	religion = "catholic"
	culture = occitan
	father = 455550 #Bernard VII de Comminges
	#mother Laure de Montfort
	1290.1.1 = {
		birth = "1290.1.1" #unknown
	}
	1348.1.1 = {
		death = "1348.1.1"
	}
}

455553 = {
	name = "Bernat" #Bernard VIII de Comminges
	# AKA: Bernard
	dynasty = CKU_comminges
	religion = "catholic"
	culture = occitan
	father = 455550 #Bernard VII de Comminges
	#mother Laure de Montfort
	1285.1.1 = {
		birth = "1285.1.1"
	}
	1302.1.1 = {
		add_spouse = CKU_lomagne_36 #married Marthe d'Armagnac
	}
	1305.1.1 = {
		add_spouse = CKU_limoges_59 #Marguerite de Turenne
	}
	1319.1.1 = {
		add_spouse = 455554 #Mathe de L'isle Jourdain
	}
	1336.8.28 = {
		death = "1336.8.28"
	}
}

455556 = {
	name = "Cecilia" #Cécile de Comminges
	# AKA: Cecile
	female = yes
	dynasty = CKU_comminges
	religion = "catholic"
	culture = occitan
	father = 455553 #Bernard VIII de Comminges
	mother = 455554 #Mathe de L'isle Jourdain
	1319.1.1 = {
		birth = "1319.1.1"
	}
	#1336 married Jaime de Aragon/urgel
	1369.1.1 = {
		death = "1369.1.1"
	}
}

455557 = {
	name = "Joana" #de Comminges
	female = yes
	dynasty = CKU_comminges
	religion = "catholic"
	culture = occitan
	father = 455553 #Bernard VIII de Comminges
	mother = 455554 #Mathe de L'isle Jourdain
	1330.1.1 = {
		birth = "1330.1.1"
	}
	#1350 married Pierre raymond de comminges
	1380.1.1 = {
		death = "1380.1.1"
	}
}

205563 = {
	name = "Petronilha" #Pétronille de Comminges
	# AKA: Petronille
	female = yes
	dynasty = CKU_comminges
	religion = "catholic"
	culture = occitan
	father = 205560 #Bernard IV de Comminges
	mother = CKU_marsan_13 #Béatrice de Bigorre
	1180.1.1 = {
		birth = "1180.1.1"
	}
	#1196.2.1 married Gaston VI de Béarn 205540
	#1216.11.6 married Guy de Montfort
	#1222 married Nuna Sanchez de Cerdagne
	#1223.5 married Boson de Mastas
	1251.11.3 = {
		death = "1251.11.3"
	}
}

138284 = {
	name = "Raimond-Rogier" #Raymond Roger de Carcassonne
	dynasty = CKU_comminges
	religion = "catholic"
	culture = occitan
	father = 40186 #Pierre-Raymond de Carcassonne
	mother = 40203 #Rangearde de Trencavel
	1050.1.1 = {
		birth = "1050.1.1"
	}
	1067.1.1 = {
		death = "1067.1.1"
	}
}

200110 = {
	name = "Rogier"
	dynasty_house = house_comminges_couserans

	father = 205564
	mother = 205555

	religion = catholic
	culture = occitan

	1182.1.1 = {
		birth = yes
	}
	1206.1.1 = {
		add_spouse = 72083
	}
	1240.1.1 = {
		death = yes
	}
}

200111 = {
	name = "Rogier"
	dynasty_house = house_comminges_couserans

	father = 200110
	mother = 72083

	religion = catholic
	culture = occitan

	1207.1.1 = {
		birth = yes
	}
	1223.1.1 = {
		add_spouse = 72138
	}
	1250.1.1 = {
		add_spouse = 200112
	}
	1257.1.1 = {
		death = yes
	}
}

200113 = {
	name = "Raimond"
	dynasty_house = house_comminges_couserans

	father = 200111
	mother = 200112

	religion = catholic
	culture = occitan

	1251.1.1 = {
		birth = yes
	}
	1295.1.1 = {
		death = yes
	}
}

200114 = {
	name = "Arnaut"
	dynasty_house = house_comminges_couserans

	father = 200111
	mother = 200112

	religion = catholic
	culture = occitan

	1253.1.1 = {
		birth = yes
	}
	1273.1.1 = {
		add_spouse = CKU_foix_43
	}
	1288.1.1 = {
		death = yes
	}
}

200115 = {
	name = "Girauda"
	female = yes
	dynasty_house = house_comminges_couserans

	father = 200111
	mother = 200112

	religion = catholic
	culture = occitan

	1255.1.1 = {
		birth = yes
	}
	1320.1.1 = {
		death = yes
	}
}

200116 = {
	name = "Orgaix"
	female = yes
	dynasty_house = house_comminges_couserans

	father = 200111
	mother = 200112

	religion = catholic
	culture = occitan

	1257.1.1 = {
		birth = yes
	}
	1324.1.1 = {
		death = yes
	}
}

200122 = {
	name = "Sibilla"
	female = yes
	dynasty_house = house_comminges_couserans

	father = 200114
	mother = CKU_foix_43

	religion = catholic
	culture = occitan

	1275.1.1 = {
		birth = yes
	}
	1330.1.1 = {
		death = yes
	}
}

200123 = {
	name = "Violant"
	female = yes
	dynasty_house = house_comminges_couserans

	father = 200114
	mother = CKU_foix_43

	religion = catholic
	culture = occitan

	1277.1.1 = {
		birth = yes
	}
	1310.1.1 = {
		death = yes
	}
}

200124 = {
	name = "Beatritz"
	female = yes
	dynasty_house = house_comminges_couserans

	father = 200114
	mother = CKU_foix_43

	religion = catholic
	culture = occitan

	1279.1.1 = {
		birth = yes
	}
	1330.1.1 = {
		death = yes
	}
}

138188 = {
	name = "Aznar" #Aznar III de Comminges
	dynasty = CKU_comminges
	religion = "catholic"
	culture = basque
	father = 168120
	890.1.1 = {
		birth = "890.1.1"
	}
	940.1.1 = {
		death = "940.1.1"
	}
}

168118 = {
	name = "Gartzia"
	dynasty = CKU_comminges
	religion = "catholic"
	culture = basque
	father = 70300
	805.1.1 = {
		birth = "805.1.1"
	}
	870.1.1 = {
		death = "870.1.1"
	}
}

168119 = {
	name = "Aznar"
	dynasty = CKU_comminges
	religion = "catholic"
	culture = basque
	father = 168118
	830.1.1 = {
		birth = "830.1.1"
	}
	905.1.1 = {
		death = "905.1.1"
	}
}

168120 = {
	name = "Lope"
	dynasty = CKU_comminges
	religion = "catholic"
	culture = basque
	father = 168119
	860.1.1 = {
		birth = "860.1.1"
	}
	935.1.1 = {
		death = "935.1.1"
	}
}

CKU_comminges = {
	name = "Hugues"
	dynasty = 721
	martial = 7
	diplomacy = 7
	intrigue = 6
	stewardship = 6
	religion = "catholic"
	culture = french
	trait = education_learning_3
	father = 382
	mother = 411
	954.1.2 = {
		birth = "954.1.2"
	}
	1010.1.2 = {
		death = "1010.1.2"
	}
}

155252 = {
	name = "Aymer"
	#Aymer de Valance
	dynasty = 93
	religion = "catholic"
	culture = "english"
	father = 138001
	mother = 205648
	1227.12.1 = {
		birth = "1227.12.1"
	}
	1260.12.4 = {
		death = "1260.12.4"
	}
}

7365 = {
	name = "Joan"
	female = yes
	dynasty = 93
	religion = "catholic"
	culture = french
	father = 138013 #William de Valence
	#mother Jeanne de Montchensy
	1270.1.1 = {
		birth = "1270.1.1"
	}
	1320.1.1 = {
		death = "1320.1.1"
	}
}

7382 = {
	name = "Isabelle"
	female = yes
	dynasty = 93
	religion = "catholic"
	culture = french
	father = 138013 #William de Valence
	#mother Jeanne de Montchensy
	1265.1.1 = {
		birth = "1265.1.1"
	}
	1305.10.5 = {
		death = "1305.10.5"
	}
}

7444 = {
	name = "Alice"
	female = yes
	dynasty = 93
	religion = "catholic"
	culture = french
	father = 138011 #Hugues XI de Lusignan
	mother = 91166 #Yolande de Dreux
	1236.10.1 = {
		birth = "1236.10.1"
	}
	1290.5.11 = {
		death = "1290.5.11"
	}
}

138027 = {
	name = "Hugues" #Hugues I de Lusignan
	# AKA: Hugh
	dynasty = 93
	religion = "catholic"
	culture = french
	885.1.1 = {
		give_nickname = nick_the_hunter #venator
		birth = "885.1.1"
	}
	930.1.1 = {
		death = "930.1.1" #unknown
	}
}

138028 = {
	name = "Hugues" #Hugues II de Lusignan
	# AKA: Hugh
	dynasty = 93
	religion = "catholic"
	culture = french
	father = 138027 #Hugh I of Lusignan
	910.1.1 = {
		give_nickname = nick_the_kind #carus
		birth = "910.1.1"
	}
	967.1.1 = {
		death = "967.1.1"
	}
}

138029 = {
	name = "Hugues" #Hugues III de Lusignan
	# AKA: Hugh
	dynasty = 93
	religion = "catholic"
	culture = french
	father = 138028 #Hugh II of Lusignan
	948.1.1 = {
		birth = "948.1.1"
	}
	#967 married Arsendis
	1012.1.1 = {
		death = "1012.1.1" #unknown
	}
}

40050 = {
	name = "Hugues" #Hugues IV de Lusignan
	# AKA: Hugh
	dynasty = 93
	religion = "catholic"
	culture = french
	father = 138029 #Hugh III of Lusignan
	985.1.1 = {
		birth = "985.1.1"
	}
	1015.1.1 = {
		add_spouse = 40037 #Aldéarde de Thouars
	}
	1026.1.1 = {
		death = "1026.1.1"
	}
}

40052 = {
	name = "Hugues" #Hugues V de Lusignan
	# AKA: Hugh
	dynasty = 93
	religion = "catholic"
	culture = french
	father = 40050 #Hugh IV of Lusignan
	mother = 40037 #Aldéarde de Thouars
	1015.1.1 = {
		give_nickname = nick_the_pious  #or the fair
		birth = "1015.1.1"
	}
	1038.1.1 = {
		add_spouse = 325 #Almodis de la marche
	}
	1041.1.1 = {
		remove_spouse = 325
	}
	1060.10.8 = {
		death = "1060.10.8"
	}
}

40055 = {
	name = "ME_lisende" #Mélisende de Lusignan
	# AKA: Melisende
	female = yes
	dynasty = 93
	religion = "catholic"
	culture = french
	father = 40052 #Hughes V de Lusignan
	mother = 325	#Almodis de la Marche
	1041.1.1 = {
		birth = "1041.1.1"
	}
	#married Simon I de Parthenay dynID = 40010
	1073.1.1 = {
		death = "1073.1.1"#before 1074
	}
}

138002 = {
	name = "Jourdain" #Jourdain de Lusignan
	# AKA: Jordan
	dynasty = 93
	religion = "catholic"
	culture = french
	father = 40052 #Hughes V de Lusignan
	mother = 325	#Almodis de la Marche
	1040.1.1 = {
		birth = "1040.1.1"
	}
	#secondary character could be deleted
	1069.1.1 = {
		death = "1069.1.1"
	}
	
}

40054 = {
	name = "Hugues" #Hugues VI de Lusignan
	# AKA: Hugh
	dynasty = 93
	religion = "catholic"
	culture = french
	father = 40052 #Hugues V de Lusignan
	mother = 325	#Almodis de la Marche
	1039.1.1 = {
		give_nickname = nick_the_devil
		birth = "1039.1.1"
	}
	1065.1.1 = {
		add_spouse = 138003 # Ildégarde de Thouars
	}
	1088.1.1 = {
		add_pressed_claim = c_la_marche #claim from his mother
	}
	1101.1.1 = {
		trait = faith_warrior
	}
	1110.1.1 = {
		death = "1110.1.1"
	}
}

138004 = {
	#secondary character could be deleted
	name = "Simon" #Simon de Lusignan, lord of Lezay (not in game)
	# AKA: Simon
	dynasty = 93
	religion = "catholic"
	culture = french
	father = 205667 #Hugues VII
	#mother Sarrasine de Lezay
	1130.1.1 = {
		birth = "1130.1.1"
	}
	1199.1.1 = {
		death = "1199.1.1"
	}
	
}

138005 = {
	#secondary character could be deleted
	name = "Guillaume" #William de Lusignan, lord d'Angles (not in game)
	# AKA: William
	dynasty = 93
	religion = "catholic"
	culture = french
	father = 205667 #Hugues VII
	#mother Sarrasine de Lezay
	1110.1.1 = {
		birth = "1110.1.1"
	}
	#married Denise D'Angles
	1145.1.1 = {
		death = "1145.1.1" #after 1144
	}
	
}

138030 = {
	name = "Mahaut" #de Lusignan
	female = yes
	dynasty = 93
	religion = "catholic"
	culture = french
	father = 205659 #Raoul I de Lusignan
	mother = 138000 #Alice d'Eu
	1210.1.1 = {
		birth = "1210.1.1"
	}
	#1236 married Humprey V de Bohun
	1241.8.14 = {
		death = "1241.8.14"
	}
}

138007 = {
	name = "Raoul" #Raoul II de Lusignan count of Eu
	dynasty = 93
	religion = "catholic"
	culture = french
	father = 205659 #Raoul I de Lusignan
	mother = 138000 #Alice d'Eu
	1200.1.1 = {
		birth = "1200.1.1"
	}
	#1222 married Jeanne de Bourgogne
	#1232 married Yolande de Dreux
	#1240 married Philippe de Danmartin
	1246.9.2 = {
		death = "1246.9.2"
	}
}

138008 = {
	name = "Marie" #Marie de Lusignan countess of Eu
	female = yes
	dynasty = 93
	religion = "catholic"
	culture = french
	father = 138007 #Raoul II de Lusignan
	#mother Yolande de Dreux
	1233.1.1 = {
		birth = "1233.1.1"
	}
	#married Alphonse de Brienne
	1260.10.15 = {
		death = "1260.10.15"
	}
}

138001 = {
	name = "Hugues" #Hugues X de Lusignan
	# AKA: Hugh
	dynasty = 93
	religion = "catholic"
	culture = french
	father = 205660
	mother = 138009
	1189.1.1 = {
		birth = "1189.1.1"
	}
	1220.3.1 = {
		add_spouse = 205648 #Isabelle d'Angouleme
	}
	1248.8.9 = {
		trait = faith_warrior
	}
	1249.6.5 = {
		death = "1249.6.5"
	}
}

138011 = {
	name = "Hugues" #Hugues XI de Lusignan
	# AKA: Hugh
	dynasty = 93
	religion = "catholic"
	culture = french
	father = 138001 #Hugues X de Lusignan
	mother = 205648 #Isabelle d'Angouleme
	1221.1.1 = {
		birth = "1221.1.1"
	}
	1238.1.1 = {
		add_spouse = 91166 #Yolande of Brittany/Dreux
	}
	1248.8.9 = {
		trait = faith_warrior
	}
	1250.4.6 = {
		death = "1250.4.6"
	}
}

138012 = {
	name = "Geoffroi" #Geoffroy de Lusignan
	# AKA: Geoffroy
	dynasty = 93
	religion = "catholic"
	culture = french
	father = 138001 #Hugues X de Lusignan
	mother = 205648 #Isabelle d'Angouleme
	1221.1.1 = {
		birth = "1221.1.1"
	}
	#secondary character could be deleted
	1274.3.1 = {
		death = "1274.3.1"
	}
}

138013 = {
	name = "Guillaume" #William de Valence
	# AKA: William
	dynasty = 93
	religion = "catholic"
	culture = french
	father = 138001 #Hugues X de Lusignan
	mother = 205648 #Isabelle d'Angouleme
	1225.1.1 = {
		birth = "1225.1.1"
	}
	1247.1.1 = {
		#dynasty = de Valence
	}
	#married Jeanne de Montchensy
	1270.1.1 = {
		trait = faith_warrior
	}
	1296.5.16 = {
		death = "1296.5.16"
	}
}

138031 = {
	name = "Aymar" #Aymar I de Valence
	# AKA: Aymer
	dynasty = 93 #Lusignan but now de Valence
	religion = "catholic"
	culture = french
	father = 138013 #William de Valence
	#mother Jeanne de Montchensy
	1270.1.1 = {
		birth = "1270.1.1"
	}
	#married Jeanne de Clermont
	#married Marie de Saint-Pol
	1324.6.24 = {
		death = "1324.6.24"
	}
}


138014 = {
	name = "Marguerite" #de la Marche/Lusignan
	female = yes
	dynasty = 93
	religion = "catholic"
	culture = french
	father = 138001 #Hugues X de Lusignan
	mother = 205648 #Isabelle d'Angouleme
	1228.1.1 = {
		birth = "1228.1.1"
	}
	#1243 married Raymond VII de Toulouse till 1245
	#1246 married Aimery IX de Thouars 138040
	1288.1.1 = {
		death = "1288.1.1"
	}
}

230528 = {
	name = "Alice" #de Lusignan
	# AKA: Alix
	female = yes
	dynasty = 93
	religion = "catholic"
	culture = french
	father = 138001 #Hugues X de Lusignan
	mother = 205648 #Isabelle d'Angouleme
	1224.1.1 = {
		birth = "1224.1.1"
	}
	#1247.8.1 married John Warren 7th Earl of Surrey
	1256.2.9 = {
		death = "1256.2.9"
	}
}

138015 = {
	name = "Hugues" #Hugues XII de Lusignan
	dynasty = 93
	religion = "catholic"
	culture = french
	father = 138011 #Hugues XI de Lusignan
	mother = 91166 #Yolande de Dreux
	1240.1.1 = {
		birth = "1240.1.1"
	}
	#1253.1.25 married Jeanne de Fougères
	1270.5.15 = {
		trait = faith_warrior
	}
	1270.9.24 = {
		death = "1270.9.24" #siege of Tunis
	}
}

138016 = {
	name = "Hugues" #Hugues XIII de Lusignan
	dynasty = 93
	religion = "catholic"
	culture = french
	father = 138015 #Hugues XII de Lusignan
	#mother Jeanne de Fougères
	1254.1.1 = {
		birth = "1254.1.1"
	}
	1270.5.15 = {
		trait = faith_warrior
	}
	1276.6.1 = {
		add_spouse = 138026 #Beatrice de Bourgogne	
	}
	1303.11.1 = {
		death = "1303.11.1"
	}
}


138010 = {
	name = "Gui" #Gui I de Lusignan
	dynasty = 93
	religion = "catholic"
	culture = french
	father = 138015 #Hugues XII de Lusignan
	#mother Jeanne de Fougères
	1260.1.1 = {
		birth = "1260.1.1"
	}
	1308.9.24 = {
		death = "1308.9.24"
	}
}

138017 = {
	name = "Yolande" #AKA Isabelle
	female = yes
	dynasty = 93
	religion = "catholic"
	culture = french
	father = 138015 #Hugues XII de Lusignan
	#mother Jeanne de Fougères
	1255.1.1 = {
		birth = "1255.1.1"
	}
	#married Renaud III lord of Pons
	1314.9.1 = {
		death = "1314.9.1"
	}
}

138018 = {
	name = "Hugues" #Hugues I de Chypres
	dynasty_house = house_lusignan_jerusalem
	religion = "catholic"
	culture = french
	father = 223505 #Amaury II de Jerusalem
	mother = 223582 #Echive d'Ibelin
	trait = wrathful
	1194.1.1 = {
		birth = "1194.1.1"
	}
	1210.1.1 = {
		add_spouse = 138019 #Alix de Champagne
	}
	1218.1.1 = {
		trait = faith_warrior
	}
	1218.1.10 = {
		death = "1218.1.10"
	}
}

138020 = {
	name = "Henri" #Henri I de Chypres
	dynasty_house = house_lusignan_jerusalem
	religion = "catholic"
	culture = french
	father = 138018 #Hugues I de Chypres
	mother = 138019 #Alix de Champagne
	1217.3.3 = {
		give_nickname = nick_the_fat
		birth = "1217.3.3"
	}
	1250.3.1 = {
		trait = faith_warrior
	}
	1250.9.1 = {
		add_spouse = 31032 #married Plaisance d'Antioche
	}
	1254.1.18 = {
		death = "1254.1.18"
	}
}

138021 = {
	name = "Isabelle" #de Lusignan
	female = yes
	dynasty_house = house_lusignan_jerusalem
	religion = "catholic"
	culture = french
	father = 138018 #Hugues I de Chypres
	mother = 138019 #Alix de Champagne
	1216.3.1 = {
		birth = "1216.3.1"
	}
	# 1233.1.1 married Henri of Antioch 31026
	1264.2.1 = {
		death = "1264.2.1"
	}
}

138022 = {
	name = "Hugues" #Hugues II de Chypres
	dynasty_house = house_lusignan_jerusalem
	religion = "catholic"
	culture = french
	father = 138020 #Henri I de Chypres
	mother = 31032 #Plaisance of Antioch
	1252.7.1 = {
		birth = "1252.7.1"
	}
	#1264 married Isabelle d'Ibelin
	1267.11.5 = {
		death = "1267.11.5"
	}
}

138023 = {
	name = "Jean" #John I of Cyprus
	dynasty_house = house_lusignan_jerusalem
	religion = "catholic"
	culture = french
	father = 461905 #Hugues III of Cyprus
	mother = 461906 #Isabelle d'Ibelin
	1267.1.1 = {
		add_pressed_claim = c_jerusalem
		add_pressed_claim = d_jerusalem
		birth = "1267.1.1"
	}
	1285.5.20 = {
		death = "1285.5.20"
	}
}

138024 = {
	name = "Henri" #Henri II of Cyprus
	dynasty_house = house_lusignan_jerusalem
	religion = "catholic"
	culture = french
	father = 461905 #Hugues III of Cyprus
	mother = 461906 #Isabelle d'Ibelin
	1271.1.1 = {
		add_pressed_claim = c_jerusalem
		add_pressed_claim = d_jerusalem
		birth = "1271.1.1"
	}
	1306.4.26 = {
		add_pressed_claim = k_cyprus
		add_pressed_claim = c_limisol
		add_pressed_claim = c_famagusta
	}
	1310.6.5 = {
		remove_claim = k_cyprus
		remove_claim = c_limisol
		remove_claim = c_famagusta
	}
	#1317.10.16 = {
		#add_spouse = Constance daughter of Frederic II of Sicilia
	#}
	1324.8.31 = {
		death = "1324.8.31"
	}
}

138025 = {
	name = "Marguerite" #de Lusignan
	female = yes
	dynasty_house = house_lusignan_jerusalem
	religion = "catholic"
	culture = french
	father = 31026 #Henri of Poitou/Antioch
	mother = 138021 #Isabelle de Lusignan
	1244.1.1 = {
		birth = "1244.1.1"
	}
	#1268.9.22 married Jean de Montfort
	1308.1.1 = {
		death = "1308.1.1"
	}
}

205667 = {
	name = "Hugues" #Hugues VII le Brun
	dynasty = 93
	religion = "catholic"
	culture = french
	father = 40054
	mother = 138003
	1065.1.1 = {
		add_pressed_claim = c_la_marche #claim from his grand mother
		birth = "1065.1.1"
	}
	#pre 1106 married Sarrasine de Lezay b 1067- d 1144
	1147.6.1 = {
		trait = faith_warrior
	}
	1151.1.6 = {
		death = "1151.1.6"
	}
}

205668 = {
	name = "AE_nor" #AKA Aimée
	female = yes
	dynasty = 93
	religion = "catholic"
	culture = french
	father = 205667 #Hugues VII
	#mother Sarrasine de Lezay
	1130.1.1 = {
		birth = "1130.1.1"
	}
	#1144.1.2 married 205931 Geoffroy V of Thouars
	1180.1.1 = {
		death = "1180.1.1"
	}
}

205661 = {
	name = "Hugues" #Hugues VIII de Lusignan aka Le Vieux or Le Brun
	dynasty = 93
	religion = "catholic"
	culture = french
	father = 205667
	1106.1.1 = {
		give_nickname = nick_the_old
		add_pressed_claim = c_la_marche #claim from his grand grand mother
		birth = "1106.1.1"
	}
	1140.1.1 = {
		add_spouse = 205662 #Bourgogne de Rançon
	}
	1163.1.1 = {
		trait = faith_warrior
	}
	#1165.8.13 prisonner battle of Harenc
	1173.1.1 = {
		death = "1173.1.1" #died in captivity between 1165 and 1173 		
		#1173 chosen because date when the title passed to his grandson
		#and is son is said to be dead before him so can't be 1165
	}
}

205663 = {
	name = "Geoffroy" #de Lusignan
	dynasty = 93
	religion = "catholic"
	culture = french
	father = 205661 #Hugues VIII de Lusignan
	mother = 205662 #Bourgogne de Rançon
	1150.1.1 = {
		birth = "1150.1.1"
	}
	1174.1.1 = {
		trait = faith_warrior
	}
	1185.1.1 = {
		add_spouse = 138006 #Eustache Chabot
	}
	1202.1.1 = {
		add_spouse = 205623 # married Humberge de Limoges
	}
	1224.4.1 = {
		death = "1224.4.1" #before may 1224
	}
}

205665 = {
	name = "Hugues" #son of Hugues VIII and colord of Lusignan
	dynasty = 93
	religion = "catholic"
	culture = french
	father = 205661
	mother = 205662
	1141.1.1 = {
		birth = "1141.1.1"
	}
	# 1159.1.1 = {add_spouse = 205666}

	1169.3.15 = {
		death = "1169.3.15"
	}
}

205659 = {
	name = "Raoul" #Raoul I de Lusignan
	dynasty = 93
	religion = "catholic"
	culture = french
	father = 205665 #Hugues de Lusignan coruler of Lusignan
	#removed mother = 205666
	1165.1.1 = {
		birth = "1165.1.1" #maybe later (up to 1169)
	}
	#married Marguerite de Courtenay
	1194.1.1 = {
		add_spouse = 138000 #Alice d'Eu
	}
	1219.5.1 = {
		death = "1219.5.1"
	}
}

205660 = {
	name = "Hugues" #Hugues IX de Lusignan
	dynasty = 93
	religion = "catholic"
	culture = french
	father = 205665 #Hugues de Lusignan coruler of Lusignan 	
	#removed mother = 205666
	1163.1.1 = {
		birth = "1163.1.1"
	}
	1189.1.1 = {
		add_spouse = 138009 #Mathilde d'Angouleme
	}
	1218.6.28 = {
		trait = faith_warrior
	}
	1219.11.5 = {
		death = "1219.11.5"
	}
}

223500 = {
	name = "Guy"
	dynasty = 93 #Guy de Lusignan
	religion = "catholic"
	culture = french
	father = 205661 #Hugues VIII de Lusignan
	mother = 205662 #Burgondie de Rançon
	1159.1.1 = {
		birth = "1159.1.1"
	}
	1174.1.1 = {
		trait = faith_warrior
	}
	1180.4.1 = {
		add_spouse = 223522 #Sibylla of Jerusalem
	}
	1187.10.2 = {
		add_pressed_claim = c_jerusalem
		add_pressed_claim = d_jerusalem
	}
	1194.7.18 = {
		death = "1194.7.18"
	}
}

223502 = {
	#secondary character could be deleted
	name = "Alice"
	female = yes
	dynasty = 93
	religion = "catholic"
	culture = french
	father = 223500
	mother = 223522
	trait = ill
	1181.1.1 = {
		birth = "1181.1.1"
	}
	1190.08.1 = {
		death = "1190.08.1"
	}
}

223503 = {
	#secondary character could be deleted
	name = "Marie"
	female = yes
	dynasty = 93
	religion = "catholic"
	culture = french
	father = 223500
	mother = 223522
	trait = ill
	1183.1.1 = {
		birth = "1183.1.1"
	}
	1190.08.1 = {
		death = "1190.08.1"
	}
}

223504 = {
	#secondary character could be deleted
	name = "Bourguigne"
	female = yes
	dynasty = 93
	religion = "catholic"
	culture = french
	trait = ill
	father = 223500
	mother = 223522
	1185.1.1 = {
		birth = "1185.1.1"
	}
	1190.09.1 = {
		death = "1190.09.1"
	}
}


223505 = {
	name = "Amaury" #Amaury II de Jerusalem /de Lusignan
	#AKA Amaury I of Cyprus
	dynasty_house = house_lusignan_jerusalem
	religion = "catholic"
	culture = french
	father = 205661 #Hugues VIII de Lusignan
	mother = 205662 #Burgondie de Rançon
	1145.1.1 = {
		birth = "1145.1.1"
	}
	1174.1.1 = {
		trait = faith_warrior
	}
	1174.10.28 = {
		add_spouse = 223582 #Echive d'Ibelin
	}
	1197.9.10 = {
		add_pressed_claim = c_jerusalem
		add_pressed_claim = d_jerusalem
	}
	1198.1.1 = {
		add_spouse = 223524 #Isabelle de Jerusalem/d'Anjou
	}
	
	1205.4.1 = {
		death = "1205.4.1"
	}
}

223506 = {
	name = "Bourgogne"
	female = yes
	dynasty_house = house_lusignan_jerusalem #Lusignan
	religion = "catholic"
	culture = french
	father = 223505 #Amaury II de Jerusalem
	mother = 223582 #Echive d'Ibelin
	1175.7.1 = {
		birth = "1175.7.1"
	}
	#married Raymond VI de Toulouse
	1210.1.1 = {
		death = "1210.1.1"
	}
}

31019 = {
	name = "Helvis" #AKA Heloise
	female = yes
	dynasty_house = house_lusignan_jerusalem #Lusignan
	religion = "catholic"
	culture = french	
	father = 223505 #Amaury II de Jerusalem
	mother = 223582 #Echive d'Ibelin
	1190.1.1 = {
		birth = "1190.1.1"
	}
	1219.1.1 = {
		death = "1219.1.1"
	}
}

223507 = {
	name = "Guy"
	dynasty_house = house_lusignan_jerusalem #Lusignan
	religion = "catholic"
	culture = french
	father = 223505 #Amaury II de Jerusalem
	mother = 223582 #Echive d'Ibelin
	1180.1.1 = {
		birth = "1180.1.1" #unknown
	}
	1205.1.1 = {
		death = "1205.1.1"
	}
}

223508 = {
	name = "Jean"
	dynasty_house = house_lusignan_jerusalem #Lusignan
	religion = "catholic"
	culture = french
	father = 223505 #Amaury II de Jerusalem
	mother = 223582 #Echive d'Ibelin
	1182.1.1 = {
		birth = "1182.1.1" #unknown
	}
	1205.1.1 = {
		death = "1205.1.1"
	}
}

223509 = {
	name = "Alix"
	female = yes
	dynasty_house = house_lusignan_jerusalem #Lusignan
	religion = "catholic"
	culture = french
	father = 223505 #Amaury II de Jerusalem
	mother = 223582 #Echive d'Ibelin
	1196.1.1 = {
		birth = "1196.1.1"
	}
	1205.1.1 = {
		death = "1205.1.1"
	}
}

30995 = {
	name = "Sybille"
	female = yes
	dynasty_house = house_lusignan_jerusalem
	religion = "catholic"
	culture = french
	father = 223505 #Amaury II de Lusignan
	mother = 223524 #Isabelle de Jerusalem
	1199.1.1 = {
		birth = "1199.1.1"
	}
	1252.1.1 = {
		death = "1252.1.1"
	}
}

30996 = {
	name = "Melisende"
	female = yes
	dynasty_house = house_lusignan_jerusalem
	religion = "catholic"
	culture = french
	father = 223505 #Amaury II de Lusignan
	mother = 223524 #Isabelle de Jerusalem
	1200.1.1 = {
		birth = "1200.1.1"
	}
	#1218 married Bohemond IV of Antioch
	1249.1.1 = {
		death = "1249.1.1"
	}
}

30997 = {
	name = "Amaury"
	dynasty_house = house_lusignan_jerusalem
	religion = "catholic"
	culture = french
	father = 223505 #Amaury II de Lusignan
	mother = 223524 #Isabelle de Jerusalem
	1201.1.1 = {
		birth = "1201.1.1"
	}
	1205.2.2 = {
		death = "1205.2.2"
	}
}


461905 = {
	name = "Hugues" #Hugues III of Chypre/Cyprus
	dynasty_house = house_lusignan_jerusalem
	religion = "catholic"
	culture = french
	father = 31026 # Henri of Antioch
	mother = 138021 #Isabelle de Lusignan
	1235.1.1 = {
		give_nickname = nick_the_great
		birth = "1235.1.1"
	}
	1255.1.23 = {
		add_spouse = 461906
	}
	1284.1.15 = {
		death = "1284.1.15"
	}
}

461914 = {
	name = "Marguerite"
	female = yes
	dynasty_house = house_lusignan_jerusalem
	religion = "catholic"
	culture = french
	father = 461905 #Hugues III of Cyprus
	mother = 461906 #Isabelle d'Ibelin
	1276.1.1 = {
		birth = "1276.1.1"
	}
	#1288 married Thoros III of Armenia
	1296.1.1 = {
		death = "1296.1.1"
	}
}

461916 = {
	name = "Amaury" #Amaury II of Cyprus
	dynasty_house = house_lusignan_jerusalem
	religion = "catholic"
	culture = french
	father = 461905 #Hugues III of Cyprus
	mother = 461906 #Isabelle d'Ibelin
	1272.1.1 = {
		birth = "1272.1.1"
	}
	1292.1.8 = {
		add_spouse = 461917 #Isabelle daughter of Leon III of Armenia
	}
	1310.6.5 = {
		death = "1310.6.5"
	}
}

461921 = {
	name = "Jean" #Regent of Armenia
	dynasty_house = house_lusignan_jerusalem
	religion = "catholic"
	culture = french
	father = 461916 #Amaury II of Cyprus
	mother = 461917 #Isabelle of Armenia
	1293.1.1 = {
		birth = "1293.1.1"
	}
	1336.1.8 = {
		add_spouse = 461922 #Soldanne
	}
	1343.10.10 = {
		death = "1343.10.10"
	}
}

461923 = {
	name = "Bohemond" #Lusignan Lord of Korikos
	dynasty_house = house_lusignan_jerusalem
	religion = "catholic"
	culture = french
	father = 461916 #Amaury II of Cyprus
	mother = 461917 #Isabelle of Armenia
	1301.1.1 = {
		birth = "1301.1.1"
	}
	1351.1.1 = {
		death = "1351.1.1"
	}
}

461924 = {
	name = "Barthelemy"
	dynasty_house = house_lusignan_jerusalem
	religion = "catholic"
	culture = french
	trait = bastard
	father = 461923 #Bohemond Lusignan Lord of Korikos
	1330.1.1 = {
		birth = "1330.1.1"
	}
	1380.1.1 = {
		death = "1380.1.1"
	}
}

461918 = {
	name = "Guy" #Constantin IV/II of Armenia
	dynasty_house = house_lusignan_jerusalem
	religion = "catholic"
	culture = french
	father = 461916 #Amaury II of Cyprus
	mother = 461917 #Isabelle of Armenia
	1288.1.1 = {
		birth = "1288.1.1"
	}
	#1318 married Kantakuzene
	1331.1.1 = {
		add_spouse = 461919  # Théodora Syrgiannaina
	}
	1344.4.17 = {
		death = "1344.4.17"
	}
}

461920 = {
	name = "Isabelle"
	female = yes
	dynasty_house = house_lusignan_jerusalem
	religion = "catholic"
	culture = french
	father = 461918 #Constantin IV/II of Armenia
	mother = 461919 #Théodora Syrgiannaina
	1333.1.1 = {
		birth = "1333.1.1"
	}
	#1347-1350 married Manuel Cantacuzène
	1385.1.1 = {
		death = "1385.1.1"
	}
}

461903 = {
	name = "Guy" #of Cyprus
	dynasty_house = house_lusignan_jerusalem
	religion = "catholic"
	culture = french
	father = 461905
	mother = 461906
	1275.1.1 = {
		birth = "1275.1.1"
	}
	1291.1.8 = {
		add_spouse = 461904 #Eschive d'Ibelin
	}
	1303.1.1 = {
		death = "1303.1.1"
	}
}

461900 = {
	name = "Hugues" #Hugues IV of Cyprus
	dynasty_house = house_lusignan_jerusalem
	religion = "catholic"
	culture = french
	father = 461903 #Guy de Chypre/Lusignan
	mother = 461904 #Eschive D'Ibelin
	1293.1.1 = {
		birth = "1293.1.1"
	}
	1307.1.1 = {
		add_spouse = 461901 #Marie d'Ibelin
	}
	1320.1.1 = {
		add_spouse = 461902 #Alice d'Ibelin
	}
	1343.1.1 = {
		death = "1343.1.1"
	}
}

461907 = {
	name = "Guy" #Lusignan/Chypre
	dynasty_house = house_lusignan_jerusalem
	religion = "catholic"
	culture = french
	father = 461900 #Hugues IV of Cyprus
	mother = 461901 #Marie d'Ibelin
	1315.1.1 = {
		birth = "1315.1.1"
	}
	1331.1.31 = {
		add_spouse = 455654 #Marie de Bourbon
	}
	1343.1.1 = {
		death = "1343.1.1"
	}
}

461908 = {
	name = "Hugues" #de Lusignan/Prince of Cyprus
	dynasty_house = house_lusignan_jerusalem
	religion = "catholic"
	culture = french
	father = 461907 #Guy Lusignan/Chypre
	mother = 455654 #Marie de Bourbon
	1335.1.1 = {
		birth = "1335.1.1"
	}
	1365.5.1 = {
		trait = faith_warrior
	}
	#married Marie du Morf
	1385.1.1 = {
		death = "1385.1.1"
	}
}

461909 = {
	name = "Eschive"
	female = yes
	dynasty_house = house_lusignan_jerusalem
	religion = "catholic"
	culture = french
	father = 461900 #Hugues IV of Cyprus
	mother = 461902 #Alice d'Ibelin
	1322.1.10 = {
		birth = "1322.1.10"
	}
	#1337.3.5 married Fenando of Majorca
	1372.1.10 = {
		death = "1372.1.10"
	}
}

461912 = {
	name = "Jacques" #AKA James I of Cyprus
	dynasty_house = house_lusignan_jerusalem
	religion = "catholic"
	culture = french
	father = 461900 #Hugues IV of Cyprus
	mother = 461902 #Alice d'Ibelin
	1334.1.10 = {
		birth = "1334.1.10"
	}
	#1372.12.21 married Helvis de Brunswick/WELF
	1384.1.10 = {
		death = "1384.1.10"
	}
}

461913 = {
	name = "Marguerite"
	female = yes
	dynasty_house = house_lusignan_jerusalem
	religion = "catholic"
	culture = french
	father = 461900 #Hugues IV of Cyprus
	#mother unknown
	1335.1.10 = {
		birth = "1335.1.10"
	}
	#1348.1.1 Gauthier de Dampierre
	1385.1.10 = {
		death = "1385.1.10"
	}
}

461910 = {
	name = "Pierre" #Peter I of Cyprus
	dynasty_house = house_lusignan_jerusalem
	religion = "catholic"
	culture = french
	father = 461900 #Hugues IV of Cyprus
	mother = 461902 #Alice d'Ibelin
	1328.10.9 = {
		birth = "1328.10.9"
	}
	#1342 married Echive de Montfort
	1365.10.11 = {
		trait = faith_warrior
	}
	1369.1.17 = {
		death = "1369.1.17"
	}
}

461911 = {
	name = "Jean" #AKA John Regent of Cyprus Prince of Antioch
	dynasty_house = house_lusignan_jerusalem
	religion = "catholic"
	culture = french
	father = 461900 #Hugues IV of Cyprus
	mother = 461902 #Alice d'Ibelin
	1329.1.1 = {
		birth = "1329.1.1"
	}
	1343.1.1 = {
		add_spouse = 461509 #Constance of Sicilia
	}
	#1350 married Alice d'Ibelin
	1375.1.1 = {
		death = "1375.1.1"
	}
}

31858 = {
	name = "HE_lvis"
	female = yes
	dynasty_house = house_lusignan_jerusalem
	religion = "catholic"
	culture = french
	father = 461905 #Hugues III of Cyprus
	mother = 461906 #Isabelle d'Ibelin
	1274.1.1 = {
		birth = "1274.1.1"
	}
	1291.1.1 = {
		death = "1291.1.1"
	}
}

73290 = {
	name = "Marie"
	female = yes
	dynasty_house = house_lusignan_jerusalem
	religion = "catholic"
	culture = french
	father = 138018
	mother = 138019
	1215.1.1 = {
		birth = "1215.1.1"
	}
	1253.1.1 = {
		death = "1253.1.1"
	}
}

200139 = {
	name = "Marie"
	female = yes
	dynasty_house = house_lusignan_jerusalem

	father = 461905
	mother = 461906

	religion = catholic
	culture = french

	1273.1.1 = {
		birth = yes
	}
	1319.4.10 = {
		death = yes
	}
}